1:ItNr	2:Metric	3:StepSize	4:||Gradient||	Time[ms]
0	-0.556528	627.201626	0.012073	3093.4
1	-0.361670	623.504937	0.018134	7.8
2	-0.268754	619.865785	0.003811	9.7
3	-0.321329	616.282728	0.007492	8.3
4	-0.723964	612.754375	0.010086	8.8
5	-0.604994	609.279381	0.006401	10.4
6	-0.028702	605.856447	0.001936	7.3
7	-0.190175	602.484317	0.001699	9.5
8	-0.173222	599.161779	0.005886	10.6
9	-0.954451	595.887656	0.003660	7.0
10	-0.266325	592.660813	0.005318	9.2
11	-0.107974	589.480151	0.002204	7.5
12	-0.764817	586.344606	0.020890	8.9
13	-0.404878	583.253145	0.021255	8.8
14	-0.490088	580.204771	0.005037	7.1
15	-0.189139	577.198517	0.005696	9.9
16	-0.887825	574.233444	0.010661	9.2
17	-0.093085	571.308645	0.003029	8.8
18	-0.353010	568.423237	0.004998	9.8
19	-0.952146	565.576365	0.011161	9.5
20	-0.507087	562.767201	0.007799	7.2
21	-0.379244	559.994938	0.011454	10.3
22	-0.079056	557.258797	0.001593	9.1
23	-1.206683	554.558018	0.010430	7.4
24	-1.094889	551.891865	0.041086	10.1
25	-1.478236	549.259621	0.014468	7.7
26	-0.336648	546.660592	0.002916	7.9
27	-0.475003	544.094102	0.008067	10.6
28	-1.720984	541.559494	0.007368	7.6
29	-1.916975	539.056129	0.018363	8.2
30	-0.009606	536.583387	0.001003	9.7
31	-0.518891	534.140663	0.021768	7.5
32	-0.162026	531.727370	0.002226	9.5
33	-1.672761	529.342935	0.026257	8.0
34	-0.182368	526.986802	0.003219	8.9
35	-0.182207	524.658430	0.005943	12.2
36	-0.831085	522.357290	0.009493	10.1
37	-0.236745	520.082868	0.003444	8.2
38	-0.243723	517.834665	0.005131	7.5
39	-0.091990	515.612193	0.001263	10.2
40	-0.893975	513.414976	0.009859	13.5
41	-1.544795	511.242551	0.013962	16.5
42	-0.251959	509.094468	0.010071	19.0
43	-1.048950	506.970285	0.015977	29.1
44	-0.072807	504.869574	0.003889	21.3
45	-1.620724	502.791916	0.024478	32.6
46	-1.290768	500.736903	0.014478	35.4
47	-0.370597	498.704137	0.008612	29.6
48	-1.013602	496.693228	0.019471	32.6
49	-0.295901	494.703798	0.006625	31.1
50	-0.174066	492.735476	0.002713	34.5
51	-0.773238	490.787900	0.002953	32.0
52	-0.688194	488.860718	0.008811	22.1
53	-0.000065	486.953585	0.000008	25.7
54	-0.518572	485.066164	0.007910	20.7
55	-0.537169	483.198126	0.006796	24.1
56	-0.256623	481.349149	0.007733	30.3
57	-0.013749	479.518920	0.002223	21.2
58	-1.066754	477.707132	0.010323	25.4
59	-0.412607	475.913485	0.007306	21.5
60	-1.053592	474.137684	0.003036	22.7
61	-0.456302	472.379445	0.006637	22.7
62	-0.404660	470.638485	0.011080	31.9
63	-0.183495	468.914531	0.004322	25.8
64	-0.265717	467.207315	0.002897	22.3
65	-0.556229	465.516573	0.005236	23.4
66	-0.361348	463.842050	0.017349	10.8
67	-0.194737	462.183494	0.004511	9.5
68	-0.591037	460.540658	0.005303	11.5
69	-0.090268	458.913303	0.004657	11.3
70	-0.278168	457.301192	0.000955	8.2
71	-0.334650	455.704096	0.003663	8.9
72	-1.002110	454.121787	0.006069	10.3
73	-0.876220	452.554045	0.013444	11.1
74	-0.924766	451.000653	0.003483	8.8
75	-0.261350	449.461399	0.002342	10.6
76	-0.512251	447.936075	0.015588	9.9
77	-0.563373	446.424477	0.005682	7.9
78	-0.660248	444.926406	0.016843	11.4
79	-0.655222	443.441666	0.006105	9.7
80	-1.563574	441.970065	0.013295	8.2
81	-1.764771	440.511415	0.014485	10.7
82	-0.405309	439.065533	0.012011	9.7
83	-0.196413	437.632238	0.004290	8.1
84	-0.553195	436.211351	0.007298	10.2
85	-1.870555	434.802701	0.018565	10.7
86	-0.936762	433.406117	0.005597	8.1
87	-0.847623	432.021430	0.007348	7.7
88	-0.163629	430.648479	0.001199	10.9
89	-1.451346	429.287101	0.012552	9.6
90	-0.312623	427.937140	0.008049	19.2
91	-0.806263	426.598440	0.007330	9.2
92	-0.521347	425.270849	0.023180	8.1
93	-0.436990	423.954220	0.021123	11.2
94	-0.639081	422.648404	0.010162	9.5
95	-0.107750	421.353259	0.004812	7.9
96	-0.085838	420.068643	0.006420	11.0
97	-1.149415	418.794419	0.016041	9.8
98	-0.403695	417.530451	0.005944	8.1
99	-0.852207	416.276604	0.011960	11.2
100	-0.218807	415.032748	0.009719	9.7
101	-0.380151	413.798754	0.007423	8.3
102	-0.211713	412.574495	0.005540	10.8
103	-1.082378	411.359849	0.017144	9.7
104	-1.437184	410.154691	0.031332	7.5
105	-0.242812	408.958904	0.003166	11.7
106	-0.140746	407.772368	0.004919	9.8
107	-0.406254	406.594968	0.005262	21.4
108	-0.676742	405.426590	0.007835	17.7
109	-0.733342	404.267122	0.006827	15.9
110	-0.167837	403.116456	0.003943	12.7
111	-0.534512	401.974481	0.009287	10.3
112	-1.273316	400.841093	0.010114	12.3
113	-0.648463	399.716187	0.006011	9.6
114	-0.787154	398.599660	0.016763	26.3
115	-1.579482	397.491411	0.014447	31.9
116	-0.812477	396.391342	0.012677	18.2
117	-0.178886	395.299353	0.003807	17.2
118	-0.860399	394.215350	0.010774	14.6
119	-0.897632	393.139238	0.008227	22.2
120	-1.738518	392.070924	0.022887	17.0
121	-0.381264	391.010316	0.007383	11.5
122	-0.725535	389.957325	0.012486	9.5
123	-0.909263	388.911862	0.012437	10.9
124	-0.378344	387.873839	0.009154	10.0
125	-0.286437	386.843173	0.008686	10.4
126	-0.397737	385.819777	0.006215	13.7
127	-1.456330	384.803569	0.011640	7.6
128	-1.214690	383.794468	0.008938	9.9
129	-0.480784	382.792393	0.007405	10.5
130	-0.083767	381.797264	0.004004	7.6
131	-1.495407	380.809005	0.029757	10.6
132	-0.848703	379.827537	0.012297	10.1
133	-0.759115	378.852786	0.025796	7.7
134	-0.461535	377.884678	0.006331	11.5
135	-0.150304	376.923138	0.006924	9.3
136	-0.098704	375.968095	0.002931	9.6
137	-0.244433	375.019479	0.008572	9.9
138	-0.472186	374.077218	0.004910	10.0
139	-0.043416	373.141244	0.001447	7.7
140	-1.023613	372.211489	0.008148	11.4
141	-0.553987	371.287887	0.009668	9.6
142	-0.953713	370.370370	0.006669	7.4
143	-0.537144	369.458876	0.003438	10.5
144	-0.013802	368.553338	0.000258	9.6
145	-1.216156	367.653696	0.019048	7.5
146	-0.208866	366.759885	0.006253	10.2
147	-0.218104	365.871846	0.004528	8.0
148	-0.709887	364.989518	0.009752	9.1
149	-0.402072	364.112841	0.013030	11.2
150	-0.616449	363.241757	0.009716	10.4
151	-0.478761	362.376208	0.009787	9.1
152	-0.135330	361.516137	0.006265	8.3
153	-1.000562	360.661488	0.001239	9.3
154	-0.109951	359.812206	0.001769	7.8
155	-0.892528	358.968236	0.021318	10.0
156	-0.077959	358.129524	0.001972	8.5
157	-0.463116	357.296018	0.007044	9.1
158	-1.537831	356.467665	0.014846	10.3
159	-0.226229	355.644414	0.006487	7.7
160	-0.429642	354.826213	0.004465	8.7
161	-0.091346	354.013012	0.007634	9.6
162	-0.452901	353.204763	0.012660	7.6
163	-0.887151	352.401415	0.009251	9.0
164	-0.006400	351.602922	0.000344	8.3
165	-0.675377	350.809235	0.004583	8.7
166	-1.452809	350.020308	0.011365	9.3
167	-0.953627	349.236095	0.002937	7.4
168	-1.586621	348.456550	0.004658	10.5
169	-0.120531	347.681627	0.001676	9.0
170	-0.020849	346.911283	0.000306	7.5
171	-1.386459	346.145474	0.012320	11.1
172	-0.178899	345.384157	0.002614	10.5
173	-0.341428	344.627288	0.003940	8.8
174	-0.258245	343.874826	0.002815	10.1
175	-0.402648	343.126729	0.010715	10.0
176	-1.711398	342.382957	0.014119	15.1
177	-0.303256	341.643469	0.002775	10.9
178	-0.507253	340.908224	0.010235	8.8
179	-0.632055	340.177184	0.015938	11.0
180	-0.169190	339.450309	0.003750	8.9
181	-0.268575	338.727561	0.006196	8.7
182	-0.873587	338.008902	0.009762	11.2
183	-0.379785	337.294295	0.009532	10.8
184	-0.035186	336.583703	0.000467	7.9
185	-1.018202	335.877089	0.008940	10.7
186	-1.746705	335.174416	0.015688	11.9
187	-0.031956	334.475651	0.001568	19.2
188	-1.694518	333.780756	0.022673	11.9
189	-0.111476	333.089698	0.005098	11.5
190	-0.507051	332.402443	0.007087	12.3
191	-1.507739	331.718955	0.005848	8.3
192	-0.773892	331.039203	0.006373	12.9
193	-0.663595	330.363153	0.007271	12.1
194	-0.145156	329.690771	0.001616	10.9
195	-0.506602	329.022027	0.013163	8.2
196	-1.016088	328.356888	0.012426	10.1
197	-0.749447	327.695322	0.009439	11.5
198	-1.155719	327.037299	0.006637	8.2
199	-0.407760	326.382787	0.003946	9.1
200	-0.602151	325.731758	0.016359	11.4
201	-0.862336	325.084179	0.013835	14.4
202	-0.789463	324.440023	0.005023	11.2
203	-1.767788	323.799258	0.016421	14.6
204	-0.189265	323.161858	0.006026	10.8
205	-0.679529	322.527792	0.005867	7.5
206	-0.967811	321.897034	0.010916	9.6
207	-1.995791	321.269554	0.010290	7.7
208	-1.812802	320.645325	0.004525	8.9
209	-0.636510	320.024320	0.008262	9.1
210	-1.095622	319.406512	0.007172	7.1
211	-0.178673	318.791875	0.010076	10.4
212	-0.079418	318.180381	0.001891	9.2
213	-1.622670	317.572005	0.011491	7.9
214	-1.689097	316.966721	0.017950	10.3
215	-0.077418	316.364504	0.007368	7.6
216	-0.731518	315.765329	0.007144	7.8
217	-1.472664	315.169170	0.015144	9.7
218	-1.829709	314.576003	0.020815	7.4
219	-0.813366	313.985804	0.008344	8.2
220	-0.354478	313.398548	0.008056	10.3
221	-0.192277	312.814213	0.001693	8.8
222	-1.859134	312.232773	0.009095	8.5
223	-0.729807	311.654207	0.011426	9.5
224	-0.715925	311.078491	0.006313	7.6
225	-1.151153	310.505602	0.004178	9.7
226	-1.376593	309.935518	0.011358	8.6
227	-0.025656	309.368217	0.003394	7.3
228	-0.487616	308.803676	0.008651	9.3
229	-0.197205	308.241874	0.005225	7.0
230	-0.257034	307.682789	0.004567	11.3
231	-0.822352	307.126400	0.004891	10.9
232	-1.234570	306.572687	0.014801	7.9
233	-0.330823	306.021627	0.008089	9.3
234	-1.790852	305.473201	0.025554	11.2
235	-0.950601	304.927388	0.005359	9.1
236	-0.191771	304.384168	0.006376	8.6
237	-1.132436	303.843521	0.012352	9.8
238	-1.616649	303.305427	0.010056	10.5
239	-0.489467	302.769867	0.012674	8.2
240	-1.027708	302.236821	0.010238	11.0
241	-1.026304	301.706270	0.023527	10.6
242	-1.287428	301.178196	0.007694	7.8
243	-0.468190	300.652580	0.006384	9.0
244	-0.053525	300.129402	0.003307	10.2
245	-0.146289	299.608645	0.003757	7.6
246	-0.974427	299.090291	0.008421	8.8
247	-0.696850	298.574321	0.014816	9.5
248	-0.325417	298.060718	0.006314	7.4
249	-0.756946	297.549465	0.009607	9.6
250	-0.612945	297.040543	0.022769	10.2
251	-0.177158	296.533936	0.004805	7.8
252	-0.466354	296.029626	0.005110	9.3
253	-0.425276	295.527597	0.009364	7.1
254	-0.809049	295.027832	0.007488	8.1
255	-1.866806	294.530315	0.024036	9.3
256	-0.487742	294.035028	0.007164	7.1
257	-0.448421	293.541956	0.010558	9.8
258	-0.704519	293.051083	0.014200	9.0
259	-0.076162	292.562393	0.002534	7.1
260	-1.475424	292.075870	0.019802	10.2
261	-1.558892	291.591498	0.039160	9.0
262	-0.228201	291.109263	0.008019	7.9
263	-0.003041	290.629149	0.000211	9.7
264	-0.379998	290.151140	0.005244	7.8
265	-0.358144	289.675222	0.005398	8.4
266	-0.898398	289.201380	0.010462	10.0
267	-1.379914	288.729600	0.016990	8.0
268	-0.707353	288.259866	0.009524	12.8
269	-0.872188	287.792165	0.011938	10.9
270	-0.504466	287.326481	0.006456	7.5
271	-0.278236	286.862802	0.004946	8.6
272	-1.002778	286.401113	0.004281	9.9
273	-0.439252	285.941400	0.013429	7.9
274	-0.408839	285.483649	0.006201	10.6
275	-0.765243	285.027847	0.010845	11.0
276	-0.437142	284.573981	0.008827	8.1
277	-0.749587	284.122037	0.016130	9.3
278	-0.485149	283.672002	0.010452	11.4
279	-1.466333	283.223863	0.016695	7.6
280	-0.273161	282.777607	0.008815	9.5
281	-0.481854	282.333221	0.007936	11.9
282	-0.745909	281.890692	0.010768	9.9
283	-0.311992	281.450008	0.003220	7.5
284	-0.238189	281.011157	0.010665	10.8
285	-0.606899	280.574125	0.014060	8.8
286	-0.462812	280.138901	0.003586	7.9
287	-1.645284	279.705473	0.014533	10.9
288	-0.598399	279.273829	0.010714	9.7
289	-0.866780	278.843956	0.015267	7.5
290	-1.041202	278.415844	0.012416	10.4
291	-0.642515	277.989479	0.005407	10.0
292	-1.610799	277.564851	0.018312	7.2
293	-0.944935	277.141949	0.005708	10.2
294	-1.075877	276.720761	0.019060	9.1
295	-0.744645	276.301275	0.020717	7.7
296	-0.005487	275.883480	0.000375	10.3
297	-1.315006	275.467366	0.035997	7.4
298	-0.016279	275.052922	0.000858	9.0
299	-0.396765	274.640136	0.005810	9.8
300	-0.152105	274.228998	0.007674	7.4
301	-1.011388	273.819497	0.009383	10.0
302	-0.150605	273.411623	0.005995	11.0
303	-0.192228	273.005365	0.008985	7.7
304	-0.465596	272.600712	0.009605	10.3
305	-0.108381	272.197655	0.007503	11.3
306	-0.921179	271.796184	0.010299	8.0
307	-0.849685	271.396287	0.006824	9.2
308	-1.181188	270.997956	0.012053	12.5
309	-0.462375	270.601180	0.005484	10.7
310	-1.364275	270.205949	0.010092	8.1
311	-0.839993	269.812254	0.009743	11.3
312	-0.690871	269.420085	0.011520	9.6
313	-1.540927	269.029432	0.039780	7.4
314	-1.344940	268.640287	0.042647	10.1
315	-1.003381	268.252638	0.007858	9.7
316	-0.287472	267.866478	0.003200	9.7
317	-0.304253	267.481796	0.010018	9.6
318	-0.221350	267.098584	0.007973	10.0
319	-0.488138	266.716833	0.010754	7.1
320	-0.793960	266.336533	0.013257	9.8
321	-1.103320	265.957676	0.010289	9.6
322	-1.614633	265.580253	0.011196	7.9
323	-1.740424	265.204254	0.024678	10.6
324	-1.302247	264.829672	0.010239	12.2
325	-0.587074	264.456497	0.006222	11.9
326	-1.530013	264.084721	0.007403	7.8
327	-0.592604	263.714335	0.012043	9.0
328	-1.703398	263.345332	0.023606	10.8
329	-0.374180	262.977702	0.003554	7.5
330	-0.826303	262.611438	0.023479	9.0
331	-0.727016	262.246531	0.008998	8.3
332	-0.245881	261.882973	0.002528	8.5
333	-0.551415	261.520756	0.006095	9.1
334	-0.344078	261.159871	0.004502	7.4
335	-0.674566	260.800312	0.006094	9.7
336	-0.368551	260.442070	0.015729	8.8
337	-0.416918	260.085137	0.004699	7.6
338	-0.359919	259.729505	0.005330	10.2
339	-0.363920	259.375167	0.008624	8.9
340	-0.429681	259.022116	0.013228	7.4
341	-0.022002	258.670343	0.001441	10.0
342	-1.272770	258.319841	0.004827	7.1
343	-0.242802	257.970602	0.004802	8.7
344	-1.308920	257.622620	0.009472	9.8
345	-0.198979	257.275887	0.003626	7.0
346	-0.373806	256.930396	0.006800	9.0
347	-0.363710	256.586139	0.008304	7.8
348	-1.843999	256.243109	0.020527	9.1
349	-0.641228	255.901300	0.007258	9.1
350	-0.118750	255.560703	0.002817	8.4
351	-0.314871	255.221313	0.002971	9.6
352	-0.736565	254.883122	0.007929	9.0
353	-0.594328	254.546124	0.005660	7.6
354	-0.970281	254.210311	0.002410	10.1
355	-1.173285	253.875677	0.008328	9.3
356	-1.395326	253.542215	0.007693	8.7
357	-1.001748	253.209918	0.009979	12.0
358	-0.028653	252.878781	0.001985	9.4
359	-0.597268	252.548795	0.009444	7.3
360	-0.679816	252.219956	0.009220	11.4
361	-0.874836	251.892255	0.006954	9.2
362	-1.004087	251.565688	0.001506	7.3
363	-0.622544	251.240247	0.005896	11.8
364	-0.000540	250.915926	0.000056	9.8
365	-1.199201	250.592720	0.012926	8.1
366	-0.881920	250.270621	0.008345	11.2
367	-0.889663	249.949624	0.001493	10.4
368	-0.970551	249.629723	0.012079	7.3
369	-0.514811	249.310911	0.011342	11.1
370	-1.859930	248.993182	0.014897	9.6
371	-0.569437	248.676531	0.012190	8.0
372	-1.575763	248.360952	0.012796	10.4
373	-1.023757	248.046438	0.009684	10.0
374	-1.324317	247.732984	0.006925	7.5
375	-0.395837	247.420584	0.005094	9.8
376	-0.261782	247.109233	0.014366	9.4
377	-0.331459	246.798924	0.008297	8.7
378	-0.259214	246.489652	0.011413	11.4
379	-1.420929	246.181412	0.011914	9.5
380	-0.508751	245.874197	0.018329	8.2
381	-0.092507	245.568002	0.001070	10.7
382	-0.467438	245.262822	0.005496	10.8
383	-0.764497	244.958652	0.013216	7.6
384	-1.019062	244.655485	0.010102	8.7
385	-0.799708	244.353317	0.006778	10.6
386	-1.943321	244.052142	0.004706	7.0
387	-1.022770	243.751955	0.005681	9.5
388	-1.560355	243.452750	0.011030	10.4
389	-1.844984	243.154523	0.025975	9.9
390	-0.363974	242.857268	0.004739	8.0
391	-0.770812	242.560980	0.006275	10.9
392	-0.045049	242.265654	0.001882	10.8
393	-1.059506	241.971285	0.000767	7.2
394	-0.409305	241.677868	0.004561	10.0
395	-0.575924	241.385397	0.008244	11.5
396	-0.550409	241.093869	0.009032	7.5
397	-0.404710	240.803278	0.006724	8.5
398	-0.848050	240.513619	0.003921	10.8
399	-1.173717	240.224887	0.007789	7.5
400	-0.748460	239.937077	0.024712	8.7
401	-1.650094	239.650186	0.014182	10.6
402	-1.408808	239.364207	0.011156	7.8
403	-1.261343	239.079136	0.008913	9.0
404	-0.646008	238.794969	0.003813	9.8
405	-0.534880	238.511701	0.011556	8.1
406	-0.262467	238.229327	0.009331	9.6
407	-0.338056	237.947843	0.005541	10.4
408	-0.796210	237.667244	0.028966	7.5
409	-0.830550	237.387526	0.007284	9.5
410	-0.019887	237.108684	0.002549	11.4
411	-1.477266	236.830714	0.008913	7.5
412	-0.937782	236.553610	0.017667	9.7
413	-0.512588	236.277370	0.019358	10.1
414	-0.278115	236.001989	0.005373	7.3
415	-0.805360	235.727461	0.010879	9.8
416	-0.545370	235.453784	0.006801	8.7
417	-0.640378	235.180952	0.016509	8.9
418	-0.910203	234.908962	0.009134	9.4
419	-0.420917	234.637809	0.013434	7.4
420	-0.679295	234.367488	0.006324	10.2
421	-0.806232	234.097997	0.013132	9.8
422	-0.471526	233.829331	0.004504	7.4
423	-0.547412	233.561485	0.011406	10.2
424	-0.976914	233.294456	0.014859	9.6
425	-0.006905	233.028239	0.000854	8.3
426	-0.607116	232.762831	0.008216	10.2
427	-0.668018	232.498228	0.007195	8.1
428	-0.666003	232.234425	0.013386	7.2
429	-0.972397	231.971419	0.004755	10.6
430	-0.669235	231.709205	0.013766	7.9
431	-0.470040	231.447781	0.011885	8.8
432	-0.051203	231.187141	0.002792	9.6
433	-0.725734	230.927283	0.010531	7.5
434	-0.316893	230.668202	0.005345	9.4
435	-1.327134	230.409895	0.006941	7.7
436	-0.562850	230.152358	0.028970	8.1
437	-1.019641	229.895587	0.005680	9.3
438	-0.179411	229.639578	0.001265	7.1
439	-0.806756	229.384329	0.006809	10.3
440	-1.129062	229.129834	0.003498	9.1
441	-0.518273	228.876091	0.006240	7.1
442	-1.113256	228.623096	0.010582	9.7
443	-0.295571	228.370846	0.002998	8.5
444	-1.866545	228.119336	0.009576	8.2
445	-0.529930	227.868563	0.007800	9.9
446	-0.403445	227.618525	0.009107	8.1
447	-1.063591	227.369216	0.007822	8.6
448	-1.073753	227.120635	0.005424	9.7
449	-1.477323	226.872777	0.009512	7.6
450	-1.593266	226.625638	0.010300	9.3
451	-0.417527	226.379217	0.003637	9.3
452	-0.453314	226.133509	0.012397	8.3
453	-1.552167	225.888510	0.004227	9.7
454	-0.641687	225.644218	0.021983	7.5
455	-0.319265	225.400630	0.011982	10.0
456	-0.771745	225.157741	0.008276	8.7
457	-0.902684	224.915549	0.008248	7.8
458	-0.799462	224.674051	0.036229	10.2
459	-0.784710	224.433242	0.010970	8.8
460	-0.573181	224.193121	0.013232	7.3
461	-1.703798	223.953684	0.020927	10.0
462	-1.003952	223.714927	0.011492	7.3
463	-0.499270	223.476848	0.008180	9.2
464	-0.055177	223.239444	0.002194	10.1
465	-0.624827	223.002710	0.007234	7.7
466	-0.575639	222.766645	0.003608	9.2
467	-0.703802	222.531245	0.008343	9.2
468	-0.460183	222.296508	0.016906	8.2
469	-1.419783	222.062429	0.010911	9.8
470	-0.281206	221.829007	0.004686	10.4
471	-0.843389	221.596238	0.005613	7.9
472	-0.784943	221.364119	0.005461	9.8
473	-0.593695	221.132647	0.004035	9.3
474	-0.009949	220.901820	0.000349	8.2
475	-1.523771	220.671634	0.006525	9.6
476	-0.225857	220.442086	0.006420	11.9
477	-0.011897	220.213174	0.000595	7.7
478	-0.281793	219.984895	0.011675	9.5
479	-0.983268	219.757246	0.004167	11.3
480	-0.215704	219.530224	0.001523	8.3
481	-0.370732	219.303826	0.003955	9.1
482	-1.035381	219.078050	0.008790	11.8
483	-0.597785	218.852893	0.007965	10.0
484	-0.444735	218.628352	0.005090	8.1
485	-0.391670	218.404424	0.004553	10.8
486	-0.825613	218.181106	0.034422	9.6
487	-0.747315	217.958397	0.022069	8.6
488	-1.373766	217.736292	0.011380	9.6
489	-0.366752	217.514790	0.002517	9.1
490	-0.367518	217.293888	0.002624	7.1
491	-1.100897	217.073584	0.010618	10.3
492	-1.085504	216.853873	0.006558	7.9
493	-1.388120	216.634755	0.013472	8.0
494	-0.660187	216.416227	0.010220	9.5
495	-1.436987	216.198285	0.009439	7.2
496	-1.694529	215.980927	0.016305	9.0
497	-0.201848	215.764151	0.008015	10.1
498	-0.646289	215.547955	0.023591	7.6
499	-0.987094	215.332335	0.007009	9.1
500	-0.276618	215.117289	0.004616	7.3
501	-0.907003	214.902815	0.007928	9.2
502	-0.853958	214.688911	0.004221	9.2
503	-0.885287	214.475573	0.013287	7.3
504	-0.734856	214.262800	0.007013	10.6
505	-0.083276	214.050588	0.001225	8.5
506	-0.488430	213.838936	0.015523	8.1
507	-0.499794	213.627842	0.011051	10.5
508	-0.974659	213.417302	0.003982	7.9
509	-0.697432	213.207314	0.016741	7.7
510	-0.495950	212.997877	0.003949	10.7
511	-0.118096	212.788987	0.004295	8.3
512	-1.014809	212.580642	0.003833	8.6
513	-0.579286	212.372841	0.007276	10.0
514	-1.069958	212.165581	0.002498	7.6
515	-1.628136	211.958859	0.011389	9.9
516	-0.469501	211.752673	0.004082	10.2
517	-0.718804	211.547021	0.005914	7.9
518	-0.592977	211.341902	0.022802	8.8
519	-0.545939	211.137311	0.006454	10.4
520	-0.209191	210.933248	0.001705	7.6
521	-1.206653	210.729710	0.027541	10.0
522	-0.717781	210.526695	0.007193	10.1
523	-0.361981	210.324200	0.011193	7.5
524	-0.552145	210.122224	0.007466	9.6
525	-0.435189	209.920765	0.005191	9.6
526	-0.576958	209.719820	0.007088	7.7
527	-0.274496	209.519387	0.008201	9.1
528	-1.181990	209.319463	0.015637	7.0
529	-0.273492	209.120048	0.004163	9.7
530	-0.471810	208.921139	0.004820	9.5
531	-0.081271	208.722733	0.001313	7.1
532	-0.695630	208.524829	0.007516	10.0
533	-0.210378	208.327425	0.001616	8.9
534	-0.082207	208.130518	0.000809	7.9
535	-0.326505	207.934107	0.008892	9.9
536	-1.726241	207.738189	0.021745	7.0
537	-0.826597	207.542762	0.005401	8.4
538	-0.258921	207.347825	0.003318	10.4
539	-0.185472	207.153376	0.004161	8.6
540	-0.697710	206.959412	0.007170	9.9
541	-0.993268	206.765932	0.010816	10.4
542	-0.662416	206.572933	0.006573	7.6
543	-0.808372	206.380414	0.015595	10.2
544	-1.524507	206.188373	0.010092	10.3
545	-0.601334	205.996807	0.008058	7.6
546	-0.710889	205.805716	0.013888	10.2
547	-1.451074	205.615096	0.008021	11.2
548	-0.610056	205.424946	0.008289	7.2
549	-0.397693	205.235265	0.004331	9.1
550	-0.138988	205.046050	0.006054	10.5
551	-0.351977	204.857299	0.010713	7.1
552	-0.377656	204.669011	0.005356	10.1
553	-0.040827	204.481184	0.000793	10.7
554	-0.557114	204.293816	0.013445	7.7
555	-0.116066	204.106905	0.001909	8.9
556	-1.670782	203.920449	0.017318	9.7
557	-0.659415	203.734447	0.012342	8.0
558	-0.777347	203.548896	0.011616	9.2
559	-0.825362	203.363795	0.013304	7.1
560	-0.225795	203.179143	0.003614	8.6
561	-0.770581	202.994937	0.008871	9.0
562	-0.434434	202.811176	0.013066	7.7
563	-0.615684	202.627857	0.007134	10.3
564	-0.331740	202.444980	0.005210	9.2
565	-1.107170	202.262543	0.011476	7.6
566	-0.553313	202.080543	0.008246	10.9
567	-0.366045	201.898979	0.002882	9.9
568	-1.357747	201.717849	0.009650	7.8
569	-0.213710	201.537153	0.008134	11.8
570	-0.375595	201.356887	0.005159	9.4
571	-0.854071	201.177050	0.007443	7.8
572	-0.171604	200.997642	0.008257	12.6
573	-0.359364	200.818659	0.005585	10.5
574	-0.412682	200.640100	0.008262	10.4
575	-1.669554	200.461965	0.008963	7.5
576	-1.791320	200.284250	0.011309	9.9
577	-0.617204	200.106955	0.012951	8.1
578	-0.814440	199.930078	0.010629	7.3
579	-1.061378	199.753617	0.012751	9.4
580	-1.552537	199.577571	0.007210	7.5
581	-0.360942	199.401938	0.008556	9.4
582	-1.343608	199.226717	0.011674	10.7
583	-0.517034	199.051905	0.008889	7.3
584	-0.247438	198.877502	0.009579	10.9
585	-1.890112	198.703506	0.005970	9.1
586	-0.633437	198.529916	0.007652	7.3
587	-0.522776	198.356729	0.007851	11.4
588	-0.441231	198.183944	0.009426	8.9
589	-0.573747	198.011560	0.004791	8.1
590	-1.015028	197.839576	0.010403	11.7
591	-0.552290	197.667989	0.010431	9.7
592	-1.558842	197.496798	0.013770	7.0
593	-0.978342	197.326002	0.011031	10.1
594	-0.895545	197.155600	0.013927	9.0
595	-0.622514	196.985589	0.004850	7.9
596	-1.716480	196.815969	0.005929	10.1
597	-0.457034	196.646738	0.018534	7.5
598	-0.351411	196.477894	0.004544	8.3
599	-0.450099	196.309436	0.009935	10.6
600	-1.011621	196.141363	0.003159	7.3
601	-1.328590	195.973673	0.009861	10.7
602	-0.818608	195.806365	0.004554	10.8
603	-0.565426	195.639437	0.002408	8.4
604	-0.847645	195.472888	0.010256	10.0
605	-0.987444	195.306717	0.003771	10.4
606	-0.558494	195.140922	0.006512	7.6
607	-1.737462	194.975501	0.007246	9.2
608	-0.468244	194.810454	0.008634	9.7
609	-1.047804	194.645779	0.034918	7.6
610	-0.737077	194.481475	0.007066	9.7
611	-0.832387	194.317540	0.003235	9.6
612	-1.695393	194.153973	0.004862	7.8
613	-0.599263	193.990773	0.009600	9.7
614	-0.366582	193.827938	0.007318	9.2
615	-0.638018	193.665467	0.012257	8.3
616	-0.286254	193.503358	0.009564	9.7
617	-1.629880	193.341611	0.008479	9.3
618	-1.472983	193.180224	0.007254	8.1
619	-0.589391	193.019196	0.012156	9.3
620	-0.685002	192.858525	0.013018	11.4
621	-0.382596	192.698210	0.009799	8.0
622	-0.561516	192.538251	0.010396	9.5
623	-1.115112	192.378644	0.010763	10.7
624	-1.057812	192.219391	0.011729	8.6
625	-0.047287	192.060488	0.000447	10.7
626	-1.327558	191.901935	0.008786	12.2
627	-1.383568	191.743730	0.013440	8.2
628	-0.462537	191.585873	0.011080	8.1
629	-0.545062	191.428362	0.005217	11.2
630	-1.397286	191.271196	0.007607	10.7
631	-0.495239	191.114374	0.009199	8.8
632	-0.644957	190.957893	0.009789	15.4
633	-0.121410	190.801755	0.001148	10.7
634	-0.475686	190.645956	0.004802	13.5
635	-0.558872	190.490495	0.014214	10.3
636	-0.465430	190.335373	0.022357	9.9
637	-0.271432	190.180587	0.005619	10.2
638	-0.713655	190.026136	0.011009	12.6
639	-0.623747	189.872019	0.014422	14.1
640	-1.764681	189.718235	0.008911	10.1
641	-0.620088	189.564782	0.012080	8.7
642	-0.903682	189.411661	0.008670	8.9
643	-0.531913	189.258868	0.009530	12.6
644	-1.530074	189.106404	0.009240	11.3
645	-0.035245	188.954267	0.000411	12.3
646	-1.616832	188.802456	0.030851	9.1
647	-0.515977	188.650969	0.010588	14.0
648	-1.386240	188.499807	0.009311	12.1
649	-1.200562	188.348967	0.007492	10.4
650	-0.668370	188.198448	0.008333	9.9
651	-0.193521	188.048250	0.002565	11.4
652	-1.167442	187.898371	0.041657	12.4
653	-0.666952	187.748810	0.026294	11.5
654	-0.710544	187.599566	0.003680	10.8
655	-0.411243	187.450638	0.010376	9.7
656	-0.444906	187.302025	0.010255	10.1
657	-0.288618	187.153725	0.002075	11.3
658	-1.326179	187.005739	0.013485	11.2
659	-0.482401	186.858064	0.011872	9.4
660	-0.111330	186.710699	0.002858	12.9
661	-1.032475	186.563645	0.002554	12.4
662	-0.850336	186.416898	0.006648	14.1
663	-0.696289	186.270459	0.007815	13.6
664	-0.139173	186.124326	0.003379	12.3
665	-1.599121	185.978499	0.006323	7.6
666	-0.446351	185.832976	0.004898	9.5
667	-0.068233	185.687756	0.000660	13.6
668	-0.832088	185.542838	0.009516	10.0
669	-0.835821	185.398222	0.004647	7.7
670	-0.799712	185.253906	0.015956	14.0
671	-0.737656	185.109889	0.003748	11.4
672	-1.020773	184.966170	0.008098	12.6
673	-0.745583	184.822748	0.009023	9.6
674	-0.634914	184.679623	0.012939	8.0
675	-1.318657	184.536792	0.005690	14.1
676	-1.063288	184.394256	0.008229	11.7
677	-0.322501	184.252013	0.007568	10.3
678	-1.089592	184.110062	0.009444	8.8
679	-0.842762	183.968403	0.011551	10.8
680	-0.409766	183.827034	0.014012	11.0
681	-0.585439	183.685954	0.008788	8.1
682	-0.192494	183.545163	0.002453	13.3
683	-1.238283	183.404658	0.006535	11.1
684	-0.868741	183.264441	0.010820	10.4
685	-1.029773	183.124509	0.003502	8.3
686	-0.498922	182.984861	0.009318	9.5
687	-1.360981	182.845497	0.011562	9.6
688	-0.321567	182.706416	0.005609	7.4
689	-0.592949	182.567616	0.004821	10.3
690	-0.765227	182.429098	0.006837	9.9
691	-0.503970	182.290859	0.010294	8.2
692	-1.044740	182.152899	0.004764	10.4
693	-0.395849	182.015217	0.011111	9.8
694	-0.916684	181.877813	0.006238	7.7
695	-1.083891	181.740684	0.006327	11.1
696	-1.194815	181.603832	0.022776	8.7
697	-0.276025	181.467253	0.007397	8.3
698	-1.890499	181.330948	0.005469	11.1
699	-1.048890	181.194916	0.005139	8.9
700	-1.505417	181.059155	0.004758	8.8
701	-1.186989	180.923666	0.004741	12.6
702	-0.756473	180.788446	0.002975	10.0
703	-0.756652	180.653496	0.006874	9.4
704	-0.008098	180.518814	0.000653	9.2
705	-1.214889	180.384399	0.037221	10.3
706	-0.773747	180.250251	0.022453	7.7
707	-0.795931	180.116369	0.005094	9.4
708	-0.974429	179.982752	0.004311	9.6
709	-0.656999	179.849398	0.006900	7.6
710	-0.525196	179.716308	0.004041	10.2
711	-0.557523	179.583480	0.007785	9.6
712	-0.630219	179.450913	0.020692	7.9
713	-0.586277	179.318607	0.006514	10.6
714	-1.941288	179.186561	0.008889	9.8
715	-0.298372	179.054774	0.005898	7.4
716	-0.674653	178.923245	0.010046	10.3
717	-1.513774	178.791973	0.012970	7.1
718	-0.681705	178.660958	0.007607	8.7
719	-0.872456	178.530199	0.025105	10.4
720	-0.602488	178.399694	0.007168	7.6
721	-0.347377	178.269444	0.003203	8.4
722	-0.422166	178.139447	0.011333	9.6
723	-1.013811	178.009702	0.010587	7.5
724	-0.857272	177.880209	0.006089	9.9
725	-0.352752	177.750967	0.004778	10.7
726	-1.791449	177.621975	0.005752	7.4
727	-1.246953	177.493232	0.011114	9.8
728	-1.042325	177.364738	0.013192	11.4
729	-1.350720	177.236492	0.031535	8.5
730	-0.104591	177.108492	0.004977	10.5
731	-0.740564	176.980739	0.008438	9.5
732	-0.778736	176.853231	0.013315	7.8
733	-0.971169	176.725968	0.006122	10.5
734	-0.543447	176.598949	0.015398	10.7
735	-0.761122	176.472173	0.009643	9.9
736	-1.753729	176.345639	0.013688	7.8
737	-0.581963	176.219348	0.010708	10.8
738	-0.533385	176.093296	0.006415	10.6
739	-0.640713	175.967486	0.009142	7.3
740	-0.912706	175.841914	0.004310	11.0
741	-0.125156	175.716581	0.002804	9.7
742	-1.059234	175.591486	0.005899	8.4
743	-0.869166	175.466629	0.005585	10.5
744	-0.270688	175.342008	0.006195	9.7
745	-1.544010	175.217622	0.011837	7.0
746	-0.608442	175.093472	0.011363	10.0
747	-0.532553	174.969556	0.010784	9.4
748	-0.334397	174.845873	0.012610	7.5
749	-0.505456	174.722423	0.008500	10.1
750	-0.289248	174.599206	0.006270	7.5
751	-0.551814	174.476220	0.015300	9.1
752	-0.670449	174.353464	0.003111	9.9
753	-1.917666	174.230939	0.014207	7.1
754	-0.412369	174.108643	0.006817	9.1
755	-0.532292	173.986576	0.012432	8.1
756	-1.552673	173.864737	0.014323	8.0
757	-0.393287	173.743124	0.012104	8.8
758	-0.100941	173.621739	0.003254	7.0
759	-0.436492	173.500579	0.005781	9.6
760	-0.950915	173.379645	0.010994	9.4
761	-1.083352	173.258935	0.002357	9.4
762	-0.949910	173.138449	0.005788	12.1
763	-1.745251	173.018186	0.008696	11.1
764	-1.307514	172.898146	0.003746	12.5
765	-0.149600	172.778327	0.006683	9.2
766	-1.436252	172.658730	0.011411	9.0
767	-0.631679	172.539353	0.006681	9.6
768	-0.560521	172.420196	0.004840	9.0
769	-0.860733	172.301258	0.007561	7.6
770	-0.124058	172.182539	0.005193	10.1
771	-0.506911	172.064037	0.009991	10.0
772	-0.928154	171.945753	0.008669	7.0
773	-0.014533	171.827686	0.000696	10.2
774	-0.729742	171.709834	0.010916	9.2
775	-0.813922	171.592198	0.006564	8.1
776	-0.792327	171.474776	0.005765	10.6
777	-0.519392	171.357568	0.008487	9.2
778	-0.578955	171.240574	0.013167	8.3
779	-1.605509	171.123793	0.009838	10.1
780	-0.658406	171.007223	0.002616	8.1
781	-0.635551	170.890865	0.011605	8.3
782	-0.357855	170.774718	0.008852	10.4
783	-1.135155	170.658782	0.009013	10.0
784	-0.682546	170.543055	0.004285	8.6
785	-0.959946	170.427537	0.015486	10.3
786	-0.466628	170.312227	0.007648	10.9
787	-0.498036	170.197125	0.006565	12.1
788	-0.382612	170.082231	0.005026	10.8
789	-0.556001	169.967543	0.009471	8.2
790	-0.024339	169.853061	0.001960	10.2
791	-0.125057	169.738784	0.000499	9.3
792	-0.702416	169.624713	0.003944	7.5
793	-1.350908	169.510845	0.006259	10.5
794	-0.104789	169.397181	0.004310	7.9
795	-0.114299	169.283720	0.001565	8.2
796	-1.072114	169.170462	0.009671	9.8
797	-0.330095	169.057405	0.004960	7.2
798	-0.279727	168.944549	0.002713	9.2
799	-1.302191	168.831895	0.011879	9.4
800	-0.585788	168.719440	0.015359	7.8
801	-0.472907	168.607185	0.019183	10.0
802	-0.905221	168.495129	0.008478	8.6
803	-0.949322	168.383271	0.007568	9.1
804	-0.478119	168.271611	0.008013	9.7
805	-1.061340	168.160148	0.002689	8.0
806	-0.945319	168.048882	0.005191	8.7
807	-0.978845	167.937812	0.006058	9.2
808	-0.971252	167.826938	0.006113	46.7
809	-0.081380	167.716258	0.002834	8.9
810	-0.715550	167.605773	0.009385	27.3
811	-0.639424	167.495482	0.011454	46.7
812	-0.569516	167.385384	0.003408	16.2
813	-1.127751	167.275479	0.006821	30.4
814	-1.526230	167.165766	0.007144	15.4
815	-0.469992	167.056245	0.012210	13.9
816	-0.099494	166.946915	0.002900	15.2
817	-1.440447	166.837776	0.008617	11.1
818	-0.798464	166.728826	0.008023	9.9
819	-0.857509	166.620067	0.004072	8.7
820	-0.488384	166.511496	0.000818	10.9
821	-1.884961	166.403113	0.009001	11.6
822	-0.821018	166.294919	0.011449	8.2
823	-0.701891	166.186912	0.011778	9.7
824	-0.293691	166.079091	0.007596	10.4
825	-1.835508	165.971458	0.019700	7.9
826	-1.138081	165.864009	0.010759	9.4
827	-0.899173	165.756747	0.004466	9.8
828	-0.500465	165.649669	0.008231	7.3
829	-0.233362	165.542775	0.009258	8.8
830	-0.992521	165.436065	0.008117	8.5
831	-0.690550	165.329538	0.005919	8.1
832	-0.535932	165.223194	0.009068	9.1
833	-0.449633	165.117032	0.008166	7.2
834	-0.561424	165.011052	0.018915	9.6
835	-0.777022	164.905253	0.014550	9.6
836	-1.441658	164.799635	0.017310	8.3
837	-0.255585	164.694197	0.000612	10.4
838	-0.664971	164.588939	0.009566	9.5
839	-0.699948	164.483859	0.015204	7.9
840	-1.024863	164.378959	0.003814	9.9
841	-0.973606	164.274237	0.006289	9.3
842	-0.466277	164.169692	0.013058	7.8
843	-0.015698	164.065325	0.001339	10.6
844	-0.915059	163.961135	0.006274	8.5
845	-1.805521	163.857120	0.014050	8.8
846	-0.777993	163.753282	0.010236	10.6
847	-0.102757	163.649619	0.003437	8.4
848	-0.033564	163.546130	0.001782	8.0
849	-1.430267	163.442816	0.010551	10.3
850	-1.194902	163.339676	0.007806	7.5
851	-1.250153	163.236709	0.012491	9.0
852	-0.635640	163.133915	0.004699	9.8
853	-0.849267	163.031294	0.005035	7.0
854	-0.905629	162.928844	0.001421	10.0
855	-1.466171	162.826566	0.013571	10.3
856	-1.804968	162.724459	0.013760	7.0
857	-0.516587	162.622523	0.007962	10.4
858	-1.266004	162.520757	0.014864	10.2
859	-1.886667	162.419160	0.003982	7.2
860	-1.125852	162.317733	0.009227	9.4
861	-0.281612	162.216474	0.003032	8.2
862	-0.854273	162.115383	0.007153	8.1
863	-1.459439	162.014461	0.004567	8.8
864	-0.357940	161.913705	0.008208	7.3
865	-1.030643	161.813117	0.003516	8.7
866	-0.731111	161.712695	0.013515	9.4
867	-1.086051	161.612439	0.006900	8.0
868	-1.004681	161.512349	0.003900	9.2
869	-0.543215	161.412424	0.027155	9.6
870	-1.500741	161.312663	0.037200	7.1
871	-1.033648	161.213067	0.002564	10.0
872	-0.359645	161.113635	0.011713	9.3
873	-0.820182	161.014366	0.009977	7.6
874	-0.919167	160.915260	0.004071	12.6
875	-0.201096	160.816316	0.001294	11.8
876	-0.854713	160.717535	0.007180	7.7
877	-0.439682	160.618915	0.016688	9.3
878	-0.298665	160.520456	0.005498	10.1
879	-1.324559	160.422158	0.003979	7.3
880	-1.146257	160.324021	0.007148	10.5
881	-1.504099	160.226043	0.009490	9.1
882	-0.972786	160.128225	0.010640	7.3
883	-0.027744	160.030566	0.001341	10.2
884	-1.698898	159.933066	0.028836	8.5
885	-0.449355	159.835723	0.007632	7.8
886	-0.873231	159.738539	0.019044	10.6
887	-1.316106	159.641512	0.010471	8.7
888	-0.887862	159.544642	0.003199	9.3
889	-0.677765	159.447929	0.018099	9.4
890	-0.105916	159.351372	0.004155	7.5
891	-1.714999	159.254971	0.015265	8.9
892	-0.452570	159.158725	0.004891	9.5
893	-1.489676	159.062634	0.011038	7.7
894	-1.580262	158.966697	0.006251	9.7
895	-0.590422	158.870915	0.009978	7.7
896	-0.739123	158.775286	0.009475	8.4
897	-1.058198	158.679811	0.006766	9.1
898	-0.690901	158.584489	0.018520	7.1
899	-0.867704	158.489319	0.004711	10.4
900	-0.403798	158.394302	0.006869	8.8
901	-1.799489	158.299436	0.009381	7.2
902	-0.711635	158.204721	0.012145	10.0
903	-0.464341	158.110158	0.016439	7.4
904	-1.319996	158.015745	0.009066	8.3
905	-0.590316	157.921482	0.004340	9.0
906	-0.319140	157.827369	0.006907	9.1
907	-1.772661	157.733406	0.030814	7.2
908	-0.099901	157.639591	0.003361	10.3
909	-0.637417	157.545925	0.008144	7.4
910	-0.380030	157.452408	0.012368	7.6
911	-0.728308	157.359038	0.001165	10.2
912	-1.693913	157.265816	0.008496	7.3
913	-0.503764	157.172741	0.002704	8.7
914	-0.709293	157.079813	0.009479	10.9
915	-0.633170	156.987031	0.006186	7.0
916	-1.834222	156.894395	0.007449	8.9
917	-1.239601	156.801904	0.010568	10.4
918	-0.096242	156.709559	0.004198	7.8
919	-1.075309	156.617359	0.008176	9.2
920	-1.076701	156.525304	0.006327	8.9
921	-0.264061	156.433392	0.001239	7.3
922	-0.248648	156.341624	0.012274	9.6
923	-1.158897	156.250000	0.003250	8.0
924	-0.589437	156.158519	0.004127	9.5
925	-0.743341	156.067180	0.006830	9.6
926	-0.755017	155.975984	0.007235	7.5
927	-0.517405	155.884930	0.014696	10.2
928	-0.458844	155.794017	0.007441	8.5
929	-1.624873	155.703246	0.025896	8.4
930	-0.267831	155.612615	0.009618	10.0
931	-0.519243	155.522125	0.012758	7.2
932	-1.435740	155.431775	0.008266	7.9
933	-1.288553	155.341565	0.011640	10.4
934	-0.277091	155.251495	0.004815	8.3
935	-0.290486	155.161563	0.001680	8.1
936	-0.006558	155.071771	0.000483	9.7
937	-0.098376	154.982117	0.001081	8.2
938	-0.394773	154.892601	0.004478	9.7
939	-0.234641	154.803222	0.001525	13.0
940	-0.745987	154.713981	0.011839	10.9
941	-0.774859	154.624878	0.006573	7.4
942	-0.533478	154.535910	0.018717	10.5
943	-1.006254	154.447080	0.009002	9.1
944	-0.522674	154.358385	0.003028	7.0
945	-0.477991	154.269826	0.006467	9.7
946	-1.326824	154.181402	0.004857	7.4
947	-0.534800	154.093114	0.003652	9.5
948	-1.033441	154.004960	0.010792	9.7
949	-0.876353	153.916940	0.009697	7.3
950	-1.088544	153.829054	0.002133	9.5
951	-1.777780	153.741303	0.007263	7.3
952	-0.695658	153.653684	0.011537	9.2
953	-0.644054	153.566198	0.017201	9.1
954	-0.705277	153.478846	0.012705	7.7
955	-0.112687	153.391625	0.001918	10.9
956	-1.105103	153.304537	0.008125	8.9
957	-0.888930	153.217580	0.013004	6.9
958	-0.567356	153.130755	0.020655	9.9
959	-0.356479	153.044061	0.009471	8.6
960	-0.691965	152.957498	0.008038	7.4
961	-1.938858	152.871065	0.014165	10.3
962	-1.468697	152.784762	0.005357	7.8
963	-0.961304	152.698589	0.017460	8.7
964	-0.100371	152.612545	0.000606	11.1
965	-0.247641	152.526631	0.001528	7.0
966	-0.968018	152.440845	0.005995	8.2
967	-0.559865	152.355188	0.010760	10.4
968	-0.246888	152.269660	0.007532	7.2
969	-0.938596	152.184259	0.011029	9.4
970	-0.991689	152.098986	0.010185	7.5
971	-1.249352	152.013840	0.006177	9.1
972	-0.839205	151.928821	0.004297	8.9
973	-0.863957	151.843928	0.010661	8.0
974	-1.377539	151.759163	0.015063	10.8
975	-0.698246	151.674523	0.007695	9.0
976	-0.842622	151.590009	0.011422	7.5
977	-1.755189	151.505620	0.020469	10.4
978	-1.768372	151.421357	0.009910	8.1
979	-0.532665	151.337218	0.005127	8.5
980	-1.363087	151.253204	0.009786	9.5
981	-0.558489	151.169314	0.004489	6.9
982	-0.735765	151.085549	0.005476	9.1
983	-0.631391	151.001907	0.015369	9.2
984	-0.694076	150.918388	0.011740	7.7
985	-1.816930	150.834992	0.019729	9.4
986	-1.373325	150.751719	0.006185	7.5
987	-0.282415	150.668569	0.003453	9.1
988	-0.988116	150.585541	0.019798	9.7
989	-0.278558	150.502634	0.001805	7.2
990	-0.881361	150.419849	0.008078	9.7
991	-1.122337	150.337186	0.029909	8.9
992	-0.681873	150.254644	0.018812	7.7
993	-0.650635	150.172222	0.004892	10.5
994	-0.101821	150.089921	0.004723	7.5
995	-0.787060	150.007740	0.007826	8.4
996	-0.512307	149.925679	0.011605	9.7
997	-1.028582	149.843737	0.017365	7.3
998	-0.428421	149.761915	0.012358	9.5
999	-0.439853	149.680212	0.002182	9.4
1000	-0.770140	149.598627	0.007018	8.0
1001	-0.577760	149.517161	0.006962	9.5
1002	-0.852964	149.435814	0.007028	8.7
1003	-0.833398	149.354584	0.015431	7.6
1004	-0.499764	149.273472	0.004177	9.3
1005	-1.448900	149.192477	0.004954	7.1
1006	-1.155209	149.111599	0.015040	10.3
1007	-0.999643	149.030838	0.006774	9.0
1008	-1.564680	148.950194	0.007118	7.2
1009	-0.741344	148.869666	0.006791	10.2
1010	-1.387259	148.789253	0.034130	7.6
1011	-1.029538	148.708957	0.003175	7.6
1012	-0.577444	148.628776	0.007433	11.0
1013	-0.804767	148.548710	0.015336	7.6
1014	-1.612782	148.468759	0.009035	8.0
1015	-1.886217	148.388923	0.012405	10.7
1016	-0.361640	148.309201	0.007842	7.5
1017	-1.644867	148.229594	0.016535	8.7
1018	-1.108225	148.150100	0.010244	10.1
1019	-0.888562	148.070719	0.006630	7.8
1020	-1.406485	147.991452	0.018510	9.2
1021	-0.490336	147.912298	0.008055	8.9
1022	-0.447603	147.833257	0.004144	7.5
1023	-0.504634	147.754329	0.012630	9.0
1024	-0.073413	147.675512	0.002007	7.9
1025	-0.554872	147.596808	0.015674	10.1
1026	-0.487615	147.518216	0.007217	9.1
1027	-0.871400	147.439735	0.004736	7.4
1028	-0.658737	147.361365	0.007167	10.1
1029	-0.862038	147.283106	0.005810	8.9
1030	-1.253618	147.204958	0.004998	7.1
1031	-0.675045	147.126920	0.006459	10.1
1032	-0.018577	147.048993	0.000846	7.3
1033	-0.277449	146.971175	0.007118	8.5
1034	-0.254186	146.893468	0.006891	9.7
1035	-0.299550	146.815869	0.004162	7.0
1036	-0.476253	146.738380	0.015710	10.9
1037	-0.528293	146.661000	0.006188	12.2
1038	-0.453373	146.583729	0.005985	10.5
1039	-0.987481	146.506566	0.003846	7.4
1040	-0.030498	146.429511	0.002037	10.6
1041	-0.469880	146.352565	0.004267	10.2
1042	-1.425167	146.275726	0.013739	7.4
1043	-0.825208	146.198994	0.009409	10.4
1044	-0.402115	146.122370	0.013369	9.5
1045	-0.229853	146.045853	0.013540	8.5
1046	-0.673759	145.969442	0.014621	10.5
1047	-0.008018	145.893139	0.000714	9.3
1048	-0.568883	145.816941	0.002957	8.4
1049	-0.661846	145.740849	0.009681	10.6
1050	-1.289340	145.664863	0.005766	9.7
1051	-0.662206	145.588983	0.010147	8.0
1052	-0.758839	145.513208	0.009540	9.9
1053	-0.665581	145.437538	0.004511	9.8
1054	-0.873111	145.361973	0.011697	7.1
1055	-1.088188	145.286513	0.007219	10.3
1056	-0.847035	145.211157	0.004039	7.9
1057	-1.318567	145.135905	0.006550	9.2
1058	-1.070020	145.060757	0.003221	13.2
1059	-0.697791	144.985712	0.016218	9.2
1060	-1.165141	144.910771	0.018497	7.6
1061	-1.467598	144.835934	0.006431	10.8
1062	-1.622816	144.761199	0.011138	9.0
1063	-0.972779	144.686567	0.007085	9.0
1064	-0.044940	144.612037	0.000627	10.4
1065	-0.600118	144.537610	0.005272	8.5
1066	-0.900276	144.463285	0.002490	9.1
1067	-0.968491	144.389062	0.006095	10.1
1068	-0.486891	144.314940	0.005837	8.9
1069	-0.458437	144.240920	0.003857	7.5
1070	-1.928516	144.167001	0.013538	10.3
1071	-0.722423	144.093182	0.019147	7.3
1072	-0.549737	144.019465	0.010993	9.6
1073	-0.895154	143.945848	0.008017	9.6
1074	-1.035148	143.872331	0.009518	7.4
1075	-1.021574	143.798914	0.007750	9.7
1076	-0.730568	143.725597	0.003638	8.7
1077	-0.204087	143.652380	0.001327	8.0
1078	-0.699393	143.579262	0.007044	9.2
1079	-0.541242	143.506243	0.004262	12.6
1080	-0.051399	143.433323	0.002351	7.8
1081	-0.067313	143.360502	0.001105	10.7
1082	-0.748544	143.287780	0.010246	10.7
1083	-0.048887	143.215155	0.001922	7.1
1084	-0.422315	143.142629	0.015511	9.9
1085	-0.933523	143.070201	0.004054	12.6
1086	-1.920992	142.997870	0.012175	7.8
1087	-0.493756	142.925637	0.004987	9.0
1088	-1.337327	142.853501	0.008587	9.7
1089	-1.551365	142.781462	0.008012	8.5
1090	-1.583487	142.709519	0.010830	9.3
1091	-0.942220	142.637674	0.015918	8.9
1092	-0.258695	142.565924	0.005899	8.2
1093	-1.276072	142.494271	0.006554	10.0
1094	-1.729003	142.422714	0.007386	7.7
1095	-0.323983	142.351252	0.006103	9.8
1096	-0.971575	142.279886	0.018440	9.3
1097	-1.692772	142.208616	0.021315	7.6
1098	-0.719849	142.137440	0.006715	10.0
1099	-0.283354	142.066360	0.005192	9.5
1100	-1.748984	141.995374	0.009053	7.2
1101	-0.045870	141.924483	0.001921	10.4
1102	-0.303769	141.853685	0.010480	9.1
1103	-0.288552	141.782983	0.006022	7.4
1104	-0.783602	141.712373	0.008440	10.5
1105	-0.412770	141.641858	0.003221	7.8
1106	-1.172379	141.571436	0.019427	8.4
1107	-0.046774	141.501108	0.000766	9.9
1108	-0.413363	141.430872	0.004983	7.7
1109	-1.221470	141.360730	0.010137	9.3
1110	-1.542121	141.290680	0.013281	9.0
1111	-0.186485	141.220722	0.000853	8.0
1112	-0.548101	141.150857	0.011192	9.3
1113	-1.591727	141.081084	0.010389	7.0
1114	-0.319912	141.011403	0.005743	9.4
1115	-1.704510	140.941813	0.007635	8.6
1116	-0.694601	140.872315	0.012776	7.4
1117	-0.042764	140.802909	0.000751	10.0
1118	-1.023508	140.733593	0.007241	7.4
1119	-0.970256	140.664369	0.006343	7.5
1120	-1.069087	140.595235	0.023001	10.2
1121	-0.332931	140.526192	0.003290	7.1
1122	-1.141943	140.457239	0.015484	8.4
1123	-0.500165	140.388376	0.007225	10.3
1124	-1.302214	140.319603	0.008518	7.3
1125	-0.438571	140.250920	0.010263	9.5
1126	-1.308040	140.182326	0.013887	8.9
1127	-0.461901	140.113822	0.003595	7.3
1128	-1.066596	140.045407	0.007974	11.1
1129	-1.665508	139.977081	0.011551	9.3
1130	-0.515097	139.908844	0.005185	7.8
1131	-0.089431	139.840696	0.001092	9.6
1132	-0.546091	139.772635	0.020228	10.5
1133	-0.812554	139.704664	0.011153	9.1
1134	-1.381537	139.636780	0.031082	11.8
1135	-0.728064	139.568984	0.006558	12.2
1136	-0.471327	139.501276	0.008880	11.1
1137	-0.902822	139.433655	0.006232	14.1
1138	-0.878058	139.366122	0.005134	9.1
1139	-0.768719	139.298676	0.006113	10.8
1140	-1.028835	139.231317	0.004532	12.3
1141	-0.185099	139.164045	0.003588	11.7
1142	-0.058288	139.096859	0.001675	10.5
1143	-0.545414	139.029760	0.018149	14.5
1144	-0.788854	138.962747	0.009948	10.0
1145	-0.831706	138.895820	0.001359	13.3
1146	-0.251778	138.828978	0.001248	11.4
1147	-0.395401	138.762223	0.010361	13.2
1148	-1.071119	138.695553	0.005321	9.7
1149	-0.606508	138.628969	0.009664	9.1
1150	-0.889528	138.562469	0.005288	9.4
1151	-0.540281	138.496055	0.005035	11.0
1152	-0.434592	138.429725	0.010796	12.6
1153	-1.052365	138.363481	0.034274	9.4
1154	-0.017723	138.297320	0.000931	9.4
1155	-0.837244	138.231244	0.009396	10.5
1156	-1.593300	138.165252	0.004745	9.4
1157	-1.043149	138.099344	0.012105	9.3
1158	-0.855615	138.033520	0.015716	9.4
1159	-0.589321	137.967779	0.014951	13.9
1160	-0.793438	137.902122	0.014670	11.5
1161	-1.495696	137.836548	0.009812	9.5
1162	-0.349509	137.771057	0.005004	12.6
1163	-0.429024	137.705649	0.006032	10.0
1164	-0.459435	137.640324	0.007574	10.9
1165	-0.554128	137.575081	0.006588	10.9
1166	-0.006218	137.509921	0.000273	10.2
1167	-1.926784	137.444842	0.003085	15.2
1168	-0.593530	137.379846	0.011800	14.9
1169	-0.679199	137.314932	0.012669	14.5
1170	-0.921186	137.250100	0.002794	8.2
1171	-0.952703	137.185349	0.002992	11.4
1172	-0.860176	137.120680	0.007315	15.4
1173	-1.564492	137.056092	0.032839	11.3
1174	-0.694319	136.991585	0.008784	10.8
1175	-0.605541	136.927158	0.007094	15.2
1176	-0.423764	136.862813	0.009941	15.8
1177	-0.060105	136.798548	0.001829	14.6
1178	-1.416842	136.734363	0.010647	14.8
1179	-1.153846	136.670259	0.020492	20.9
1180	-0.664177	136.606235	0.008604	16.7
1181	-1.585355	136.542291	0.008084	8.6
1182	-1.747199	136.478426	0.018964	11.0
1183	-1.614800	136.414641	0.007820	14.3
1184	-0.367562	136.350936	0.001622	12.6
1185	-0.779391	136.287310	0.008538	9.6
1186	-0.386738	136.223763	0.003524	10.9
1187	-0.134123	136.160295	0.007776	11.2
1188	-0.665144	136.096905	0.020720	13.4
1189	-1.596825	136.033594	0.007283	14.9
1190	-0.622058	135.970362	0.006581	12.0
1191	-0.602802	135.907208	0.020912	20.8
1192	-0.935927	135.844133	0.008349	13.4
1193	-1.043376	135.781135	0.028878	14.0
1194	-0.267712	135.718215	0.008329	12.1
1195	-0.833941	135.655373	0.008842	13.2
1196	-0.773214	135.592608	0.007847	10.2
1197	-1.074494	135.529921	0.010072	8.4
1198	-1.042118	135.467311	0.012899	10.3
1199	-1.514897	135.404778	0.014086	13.6
1200	-1.028387	135.342322	0.001520	11.9
1201	-1.868763	135.279942	0.010507	7.7
1202	-0.297113	135.217640	0.012776	9.6
1203	-0.244405	135.155413	0.002276	10.1
1204	-1.674996	135.093263	0.022505	16.4
1205	-0.646125	135.031190	0.013350	9.7
1206	-0.810808	134.969192	0.012157	8.2
1207	-1.103149	134.907270	0.003898	9.8
1208	-0.753384	134.845424	0.010970	15.2
1209	-0.471572	134.783653	0.007654	18.4
1210	-0.692188	134.721958	0.021111	16.5
1211	-0.624992	134.660338	0.013559	22.0
1212	-0.657944	134.598793	0.008160	22.0
1213	-0.923016	134.537323	0.008851	28.5
1214	-1.347397	134.475927	0.031727	10.6
1215	-0.976103	134.414607	0.007853	7.6
1216	-0.542389	134.353361	0.005908	9.9
1217	-1.510895	134.292189	0.015276	7.8
1218	-0.617469	134.231092	0.001931	14.3
1219	-1.424000	134.170068	0.023628	10.6
1220	-0.153628	134.109119	0.002530	11.5
1221	-0.075404	134.048243	0.001276	8.5
1222	-0.305436	133.987441	0.008055	7.9
1223	-0.898511	133.926713	0.009823	10.1
1224	-0.360137	133.866057	0.002420	9.7
1225	-0.765343	133.805475	0.004602	9.6
1226	-0.952375	133.744966	0.006083	13.3
1227	-0.961160	133.684530	0.006590	9.9
1228	-0.712008	133.624167	0.009425	7.9
1229	-0.538686	133.563877	0.013049	11.3
1230	-0.774056	133.503658	0.009309	9.6
1231	-0.454448	133.443513	0.009986	10.8
1232	-1.313335	133.383439	0.015435	8.1
1233	-0.632857	133.323437	0.010811	10.2
1234	-1.395614	133.263508	0.007138	9.9
1235	-0.929993	133.203650	0.013550	13.6
1236	-1.025016	133.143864	0.005940	9.0
1237	-1.239738	133.084149	0.007950	12.2
1238	-0.229738	133.024506	0.009753	10.0
1239	-0.463316	132.964934	0.014333	7.1
1240	-0.659550	132.905433	0.009639	11.4
1241	-1.370305	132.846003	0.008423	10.1
1242	-0.370203	132.786643	0.008605	12.0
1243	-1.438568	132.727355	0.007827	10.1
1244	-0.897233	132.668137	0.007160	10.8
1245	-1.371751	132.608989	0.009583	12.1
1246	-0.432400	132.549912	0.008198	9.7
1247	-1.413760	132.490904	0.012427	8.2
1248	-0.744333	132.431967	0.014423	9.4
1249	-0.766121	132.373100	0.005047	10.6
1250	-0.615169	132.314302	0.011068	7.8
1251	-1.243733	132.255574	0.006669	9.2
1252	-1.000718	132.196916	0.004175	10.0
1253	-0.943214	132.138326	0.008481	7.8
1254	-1.110730	132.079806	0.006755	10.0
1255	-0.778119	132.021355	0.004172	10.5
1256	-0.651520	131.962973	0.005602	11.8
1257	-1.378912	131.904660	0.009066	9.1
1258	-0.921188	131.846415	0.011101	8.3
1259	-0.420438	131.788239	0.006080	11.9
1260	-1.253616	131.730131	0.009728	9.2
1261	-0.858263	131.672092	0.010140	7.8
1262	-1.161851	131.614121	0.008071	10.3
1263	-0.241356	131.556217	0.005601	10.5
1264	-0.667558	131.498382	0.006259	8.5
1265	-0.684552	131.440614	0.016674	11.3
1266	-0.934802	131.382914	0.004970	9.8
1267	-0.708236	131.325282	0.014299	11.3
1268	-0.212852	131.267717	0.006194	11.2
1269	-0.893620	131.210219	0.005222	9.8
1270	-0.687478	131.152788	0.015536	12.8
1271	-0.566134	131.095424	0.014431	10.9
1272	-0.474064	131.038127	0.003792	8.0
1273	-0.169104	130.980897	0.001296	11.1
1274	-0.675168	130.923733	0.010739	10.8
1275	-0.919094	130.866636	0.003117	7.5
1276	-1.711211	130.809605	0.005931	9.7
1277	-0.133809	130.752641	0.005173	9.6
1278	-0.665486	130.695742	0.006953	8.9
1279	-0.310213	130.638910	0.001461	7.7
1280	-0.845575	130.582143	0.010826	10.0
1281	-0.652325	130.525442	0.005912	7.7
1282	-0.380303	130.468807	0.005922	9.5
1283	-0.405123	130.412237	0.008831	9.3
1284	-1.042572	130.355733	0.018102	7.5
1285	-0.870012	130.299294	0.007270	11.2
1286	-1.377258	130.242920	0.007549	10.5
1287	-0.512820	130.186611	0.011505	7.6
1288	-0.673444	130.130366	0.005254	9.4
1289	-1.003229	130.074187	0.012082	10.1
1290	-1.540816	130.018072	0.013117	9.5
1291	-0.523141	129.962022	0.003556	8.4
1292	-1.582010	129.906036	0.011157	10.2
1293	-0.333525	129.850114	0.008736	8.9
1294	-0.544463	129.794257	0.010078	8.0
1295	-0.036411	129.738463	0.002853	10.9
1296	-0.575941	129.682734	0.005920	10.1
1297	-0.577825	129.627068	0.009894	8.3
1298	-0.979385	129.571466	0.007230	10.3
1299	-0.417643	129.515927	0.016666	11.0
1300	-0.611089	129.460452	0.010397	7.5
1301	-0.558910	129.405040	0.012084	10.0
1302	-1.353263	129.349692	0.010998	10.7
1303	-0.984639	129.294406	0.012720	10.1
1304	-1.676427	129.239183	0.011094	8.0
1305	-0.661260	129.184024	0.005534	10.4
1306	-1.063779	129.128927	0.005981	8.9
1307	-1.788747	129.073892	0.007933	7.6
1308	-0.614255	129.018921	0.014089	10.6
1309	-1.264941	128.964011	0.006100	9.4
1310	-1.031016	128.909164	0.006722	7.7
1311	-0.510777	128.854379	0.001964	13.0
1312	-1.787420	128.799656	0.012302	12.9
1313	-0.883277	128.744995	0.013339	14.4
1314	-0.821401	128.690396	0.012146	12.8
1315	-0.586646	128.635858	0.008731	12.3
1316	-0.747665	128.581382	0.008316	8.4
1317	-0.815067	128.526968	0.010588	10.7
1318	-1.512723	128.472615	0.008872	11.7
1319	-1.684884	128.418323	0.006435	10.6
1320	-1.280492	128.364092	0.011887	8.0
1321	-1.247997	128.309922	0.013062	12.6
1322	-0.860719	128.255814	0.007787	10.0
1323	-0.907599	128.201766	0.006636	14.7
1324	-0.017766	128.147778	0.001747	12.7
1325	-0.607765	128.093852	0.010656	12.4
1326	-1.017477	128.039985	0.009106	9.5
1327	-0.310198	127.986180	0.004650	12.5
1328	-0.218249	127.932434	0.002532	14.2
1329	-0.462258	127.878749	0.011440	9.9
1330	-0.472140	127.825123	0.004878	12.3
1331	-1.666058	127.771558	0.005823	8.8
1332	-0.970779	127.718052	0.016301	11.6
1333	-0.081569	127.664606	0.001350	11.8
1334	-0.962891	127.611220	0.008950	10.1
1335	-1.022199	127.557893	0.004819	8.5
1336	-0.315667	127.504625	0.003364	10.8
1337	-0.038864	127.451417	0.002336	8.8
1338	-0.883729	127.398268	0.001328	8.2
1339	-0.950244	127.345178	0.003542	10.5
1340	-1.213353	127.292147	0.005801	12.1
1341	-0.959323	127.239175	0.007098	11.7
1342	-1.012681	127.186261	0.007840	9.6
1343	-0.527081	127.133407	0.004280	7.6
1344	-0.313075	127.080610	0.011960	12.2
1345	-1.498295	127.027872	0.005168	10.3
1346	-0.997738	126.975193	0.004373	12.0
1347	-0.623371	126.922572	0.007950	8.5
1348	-1.449951	126.870008	0.010302	10.5
1349	-0.759037	126.817503	0.010580	11.6
1350	-1.614722	126.765056	0.009717	8.1
1351	-1.432441	126.712667	0.012472	9.3
1352	-0.324490	126.660335	0.006403	11.3
1353	-1.095840	126.608061	0.003126	10.1
1354	-1.474211	126.555844	0.006822	9.0
1355	-0.884345	126.503685	0.007117	12.2
1356	-0.992095	126.451583	0.007573	15.6
1357	-0.090022	126.399538	0.009775	13.4
1358	-0.786286	126.347550	0.006631	12.7
1359	-0.735174	126.295619	0.016389	9.9
1360	-0.972504	126.243745	0.007040	10.1
1361	-0.921787	126.191928	0.005062	9.3
1362	-0.992972	126.140168	0.011085	13.0
1363	-0.207379	126.088464	0.003335	11.6
1364	-1.436874	126.036817	0.007012	12.4
1365	-0.184290	125.985226	0.007011	10.9
1366	-0.059477	125.933691	0.001582	12.1
1367	-0.476960	125.882212	0.010177	11.6
1368	-0.357549	125.830790	0.005831	8.4
1369	-1.491549	125.779423	0.014453	10.6
1370	-0.774549	125.728113	0.017758	10.0
1371	-1.071071	125.676858	0.012837	8.0
1372	-1.448336	125.625659	0.008911	11.3
1373	-0.901283	125.574515	0.009550	9.1
1374	-1.139002	125.523427	0.010417	7.3
1375	-1.694203	125.472394	0.012912	12.6
1376	-0.495346	125.421417	0.007746	10.7
1377	-0.629253	125.370495	0.019428	10.6
1378	-0.909696	125.319628	0.006722	8.4
1379	-0.072348	125.268815	0.003839	10.1
1380	-1.036240	125.218058	0.008605	10.8
1381	-0.898874	125.167356	0.009585	11.4
1382	-0.897522	125.116708	0.004732	10.2
1383	-0.783406	125.066115	0.010769	9.1
1384	-0.982913	125.015576	0.002546	10.4
1385	-1.093773	124.965092	0.005244	11.0
1386	-0.453650	124.914662	0.005887	8.8
1387	-0.243076	124.864287	0.006360	9.8
1388	-0.973486	124.813965	0.009194	11.1
1389	-1.069717	124.763698	0.002794	10.0
1390	-0.766467	124.713485	0.009125	7.9
1391	-0.062347	124.663325	0.003086	10.6
1392	-0.527188	124.613219	0.018361	10.0
1393	-1.014164	124.563167	0.004109	7.9
1394	-0.620437	124.513168	0.007429	9.2
1395	-0.838787	124.463223	0.010500	10.4
1396	-0.059245	124.413332	0.001148	10.7
1397	-0.933591	124.363493	0.008193	8.3
1398	-0.391559	124.313708	0.004256	10.7
1399	-0.427803	124.263976	0.007604	10.4
1400	-1.753611	124.214297	0.015636	8.6
1401	-0.080750	124.164671	0.001160	13.1
1402	-0.317011	124.115097	0.007704	13.0
1403	-0.334854	124.065577	0.003273	10.9
1404	-0.912958	124.016109	0.006782	12.2
1405	-0.611723	123.966693	0.002929	7.8
1406	-0.434685	123.917330	0.007903	9.0
1407	-0.814714	123.868020	0.013673	11.3
1408	-0.047084	123.818762	0.000983	9.5
1409	-0.705793	123.769556	0.006704	7.8
1410	-0.741366	123.720402	0.006652	11.0
1411	-0.844165	123.671300	0.005007	10.0
1412	-0.439709	123.622250	0.007400	8.7
1413	-0.509565	123.573252	0.008985	11.0
1414	-0.713903	123.524305	0.013692	10.3
1415	-0.256649	123.475411	0.004042	11.8
1416	-0.840434	123.426568	0.022307	8.9
1417	-0.889552	123.377776	0.004286	9.9
1418	-1.438076	123.329036	0.007106	11.8
1419	-0.954780	123.280347	0.008246	10.7
1420	-1.349359	123.231709	0.005746	8.0
1421	-1.241973	123.183122	0.005250	9.8
1422	-0.302900	123.134587	0.001855	9.7
1423	-1.096225	123.086102	0.008983	8.0
1424	-0.460537	123.037669	0.003035	11.3
1425	-0.911189	122.989286	0.005680	10.7
1426	-0.563021	122.940954	0.003841	12.3
1427	-1.527255	122.892672	0.008786	9.6
1428	-0.885345	122.844441	0.012358	9.7
1429	-0.913339	122.796261	0.011174	11.3
1430	-1.037247	122.748130	0.009600	9.6
1431	-0.952211	122.700050	0.007336	7.4
1432	-1.506686	122.652021	0.035537	10.7
1433	-0.594092	122.604041	0.008740	10.4
1434	-1.178281	122.556111	0.004111	8.2
1435	-0.045949	122.508232	0.001545	12.9
1436	-0.975971	122.460402	0.014748	18.2
1437	-1.681397	122.412622	0.019193	12.5
1438	-1.741488	122.364891	0.007691	12.2
1439	-0.826482	122.317210	0.002285	15.5
1440	-0.639597	122.269579	0.005380	13.4
1441	-0.963446	122.221997	0.007980	7.6
1442	-1.142186	122.174465	0.007357	9.6
1443	-0.486306	122.126981	0.012024	10.6
1444	-0.871619	122.079547	0.014449	8.1
1445	-1.362609	122.032162	0.010104	9.5
1446	-0.998848	121.984826	0.009521	12.0
1447	-0.780109	121.937539	0.006963	11.6
1448	-1.187802	121.890301	0.004953	9.7
1449	-0.445812	121.843112	0.011249	12.5
1450	-1.773861	121.795971	0.007081	12.2
1451	-0.659761	121.748879	0.015445	12.4
1452	-0.816364	121.701835	0.006339	10.6
1453	-0.835895	121.654840	0.009586	8.4
1454	-0.520993	121.607893	0.015956	12.7
1455	-1.123662	121.560994	0.028206	10.5
1456	-0.598904	121.514144	0.004774	10.9
1457	-1.636027	121.467342	0.006133	8.5
1458	-0.384253	121.420588	0.001604	9.5
1459	-1.492107	121.373882	0.007868	11.9
1460	-0.830960	121.327223	0.005889	10.8
1461	-0.912465	121.280613	0.006905	11.2
1462	-0.954457	121.234050	0.003262	13.0
1463	-0.489588	121.187535	0.013813	10.5
1464	-0.783628	121.141067	0.008992	13.3
1465	-0.650000	121.094647	0.008833	11.1
1466	-1.027818	121.048274	0.015020	7.5
1467	-1.437789	121.001949	0.010410	11.7
1468	-0.343403	120.955671	0.004645	10.9
1469	-0.027174	120.909440	0.001955	7.6
1470	-0.868584	120.863256	0.002399	10.5
1471	-0.670419	120.817119	0.015593	9.2
1472	-0.897795	120.771029	0.009495	7.3
1473	-0.037402	120.724986	0.000672	10.6
1474	-0.309476	120.678990	0.010948	10.2
1475	-0.307248	120.633040	0.015629	8.3
1476	-0.492550	120.587137	0.008033	10.9
1477	-0.725272	120.541281	0.008895	9.4
1478	-0.739858	120.495471	0.009151	7.7
1479	-0.486362	120.449707	0.006489	10.7
1480	-1.044455	120.403990	0.005452	11.4
1481	-0.511238	120.358319	0.002830	7.3
1482	-1.570633	120.312694	0.013317	11.7
1483	-0.778621	120.267115	0.008657	10.7
1484	-1.557838	120.221582	0.006126	7.7
1485	-1.269169	120.176096	0.013246	9.8
1486	-0.589273	120.130655	0.003357	9.6
1487	-0.860801	120.085260	0.006377	13.4
1488	-0.961329	120.039910	0.006986	9.1
1489	-0.503936	119.994606	0.006538	9.1
1490	-0.912952	119.949348	0.004176	13.5
1491	-0.430055	119.904135	0.006322	12.8
1492	-1.602875	119.858968	0.005965	7.8
1493	-0.786142	119.813846	0.018695	10.1
1494	-0.620568	119.768769	0.008965	9.5
1495	-0.488493	119.723738	0.003077	7.0
1496	-0.905465	119.678752	0.000892	10.0
1497	-0.866824	119.633810	0.009376	7.9
1498	-1.011054	119.588914	0.009861	7.4
1499	-0.941325	119.544062	0.023217	10.4
1500	-1.046898	119.499256	0.005830	7.4
1501	-1.525366	119.454494	0.011985	9.2
1502	-0.877415	119.409777	0.008997	10.6
1503	-0.065772	119.365104	0.004350	7.8
1504	-0.700712	119.320476	0.008402	9.2
1505	-0.889262	119.275893	0.005242	7.7
1506	-0.825506	119.231353	0.002125	8.1
1507	-0.783847	119.186859	0.011188	9.3
1508	-0.583344	119.142408	0.026569	7.7
1509	-1.415758	119.098002	0.013971	10.0
1510	-1.895458	119.053639	0.009955	9.7
1511	-0.389500	119.009321	0.008490	7.6
1512	-1.033514	118.965047	0.001785	10.1
1513	-0.330371	118.920816	0.015327	8.3
1514	-1.633041	118.876630	0.003281	8.6
1515	-0.616912	118.832487	0.007852	10.5
1516	-0.416755	118.788388	0.013717	8.8
1517	-0.321328	118.744332	0.001871	7.4
1518	-1.277533	118.700320	0.013903	10.5
1519	-0.850715	118.656352	0.011603	7.7
1520	-0.259883	118.612427	0.006680	9.0
1521	-0.995311	118.568545	0.006673	10.2
1522	-0.773488	118.524706	0.007163	8.4
1523	-0.930490	118.480911	0.008187	9.8
1524	-0.519612	118.437159	0.009003	10.0
1525	-0.282932	118.393450	0.003734	7.7
1526	-1.033679	118.349784	0.002900	9.2
1527	-0.598998	118.306160	0.008569	9.1
1528	-0.638424	118.262580	0.015633	7.5
1529	-0.274601	118.219042	0.008249	9.3
1530	-0.962992	118.175548	0.023137	7.9
1531	-0.583754	118.132095	0.009908	9.9
1532	-0.783018	118.088686	0.006184	9.3
1533	-0.640817	118.045319	0.015143	7.3
1534	-0.480456	118.001994	0.014185	9.7
1535	-1.701823	117.958712	0.009166	9.2
1536	-1.043173	117.915472	0.005412	7.4
1537	-0.728158	117.872274	0.006786	10.4
1538	-1.341818	117.829118	0.010262	9.6
1539	-1.202833	117.786005	0.008134	7.0
1540	-0.059541	117.742933	0.001345	10.4
1541	-0.522684	117.699904	0.007814	9.8
1542	-0.526704	117.656916	0.008029	7.7
1543	-0.538050	117.613971	0.014987	10.2
1544	-0.886583	117.571067	0.025433	7.0
1545	-0.335092	117.528205	0.009053	7.2
1546	-0.766603	117.485384	0.010013	9.4
1547	-0.026907	117.442605	0.001355	8.9
1548	-0.727274	117.399867	0.004155	7.0
1549	-0.937253	117.357171	0.008457	10.0
1550	-0.295472	117.314517	0.005685	7.6
1551	-0.592536	117.271903	0.009998	8.9
1552	-0.650339	117.229331	0.010903	9.7
1553	-0.842982	117.186800	0.009423	7.6
1554	-1.366267	117.144311	0.010275	9.2
1555	-0.107547	117.101862	0.007734	9.5
1556	-0.958174	117.059454	0.010343	7.8
1557	-0.996231	117.017087	0.007996	9.6
1558	-0.786461	116.974762	0.005540	7.3
1559	-0.674293	116.932476	0.009929	8.9
1560	-0.577671	116.890232	0.009004	9.2
1561	-1.126043	116.848028	0.006934	7.9
1562	-1.245113	116.805865	0.012618	10.0
1563	-1.525305	116.763743	0.009921	9.7
1564	-0.984791	116.721661	0.003215	7.3
1565	-1.149204	116.679619	0.005314	10.2
1566	-0.440243	116.637618	0.005258	8.4
1567	-0.558880	116.595657	0.017621	8.9
1568	-0.527031	116.553736	0.007596	10.7
1569	-0.537354	116.511855	0.018783	7.5
1570	-0.980277	116.470015	0.005098	8.2
1571	-1.576122	116.428214	0.011590	10.6
1572	-0.445870	116.386454	0.003156	6.9
1573	-1.798024	116.344733	0.007181	9.1
1574	-0.849573	116.303052	0.005342	9.9
1575	-1.076447	116.261412	0.017893	7.9
1576	-0.921695	116.219810	0.007138	9.4
1577	-0.380348	116.178249	0.011148	7.4
1578	-1.418359	116.136727	0.020118	8.8
1579	-0.557478	116.095245	0.009331	9.2
1580	-0.518406	116.053802	0.009417	7.9
1581	-0.607538	116.012398	0.017113	10.6
1582	-0.771222	115.971034	0.010816	8.9
1583	-1.204019	115.929710	0.021537	7.2
1584	-0.787849	115.888424	0.008269	10.3
1585	-0.357951	115.847178	0.002529	9.1
1586	-0.912148	115.805970	0.027160	7.4
1587	-0.851354	115.764802	0.005081	10.5
1588	-1.721444	115.723673	0.011790	7.3
1589	-0.675217	115.682583	0.019242	7.1
1590	-0.225904	115.641532	0.003925	9.9
1591	-0.756678	115.600519	0.011848	7.7
1592	-0.713314	115.559546	0.011228	8.5
1593	-1.722137	115.518610	0.015036	9.9
1594	-0.422509	115.477714	0.014502	7.2
1595	-0.684827	115.436856	0.009963	9.1
1596	-0.867775	115.396037	0.007841	7.5
1597	-1.500201	115.355256	0.009045	8.5
1598	-0.550824	115.314514	0.006941	9.2
1599	-1.574639	115.273810	0.005171	7.6
1600	-1.507302	115.233144	0.014763	10.3
1601	-1.694234	115.192517	0.013105	9.1
1602	-0.876866	115.151927	0.015693	7.0
1603	-0.987139	115.111376	0.004100	9.6
1604	-0.096370	115.070863	0.001105	7.9
1605	-0.587958	115.030388	0.004796	8.5
1606	-1.439648	114.989951	0.007532	10.6
1607	-0.607433	114.949551	0.020107	7.7
1608	-1.483818	114.909190	0.009329	7.4
1609	-0.826692	114.868866	0.007562	10.0
1610	-0.254937	114.828580	0.004549	7.0
1611	-0.257284	114.788332	0.007519	8.8
1612	-1.037486	114.748121	0.004673	9.6
1613	-0.809695	114.707948	0.006605	7.3
1614	-0.543044	114.667812	0.008396	11.0
1615	-1.279340	114.627714	0.008576	9.7
1616	-0.163194	114.587653	0.007289	7.6
1617	-0.446903	114.547629	0.005900	9.1
1618	-0.883981	114.507643	0.006560	9.6
1619	-0.387710	114.467693	0.005828	7.8
1620	-1.648182	114.427781	0.008445	9.2
1621	-1.225825	114.387907	0.008493	7.4
1622	-1.210498	114.348069	0.007854	9.2
1623	-0.926102	114.308268	0.004593	9.1
1624	-1.544025	114.268504	0.007720	7.1
1625	-0.305573	114.228777	0.006518	11.0
1626	-0.473854	114.189086	0.001292	9.3
1627	-0.960424	114.149433	0.005687	7.3
1628	-0.741023	114.109816	0.010470	10.4
1629	-0.921435	114.070235	0.007751	9.3
1630	-0.767230	114.030692	0.017560	9.0
1631	-0.713725	113.991185	0.003698	9.8
1632	-1.269308	113.951714	0.007233	7.8
1633	-0.512814	113.912280	0.018242	8.3
1634	-1.467096	113.872882	0.010205	9.6
1635	-1.356283	113.833521	0.014259	7.9
1636	-0.788309	113.794195	0.004290	9.8
1637	-1.113076	113.754906	0.015248	9.3
1638	-1.070881	113.715653	0.008046	8.4
1639	-0.707165	113.676437	0.019430	9.3
1640	-0.945844	113.637256	0.013387	9.9
1641	-0.511223	113.598111	0.006043	7.2
1642	-0.482255	113.559002	0.007191	9.9
1643	-1.858700	113.519929	0.017980	7.1
1644	-0.895612	113.480892	0.006563	9.6
1645	-0.483774	113.441891	0.008505	8.8
1646	-1.057443	113.402925	0.004775	7.3
1647	-1.186730	113.363995	0.005002	10.3
1648	-0.735849	113.325101	0.013581	9.9
1649	-0.716130	113.286242	0.016073	7.2
1650	-1.165413	113.247419	0.005078	10.0
1651	-0.973210	113.208631	0.010018	7.0
1652	-0.003657	113.169879	0.000141	8.6
1653	-0.378145	113.131162	0.013308	13.3
1654	-1.263386	113.092480	0.010240	10.2
1655	-0.910417	113.053833	0.014685	8.3
1656	-1.346315	113.015222	0.010061	10.4
1657	-0.435621	112.976646	0.006481	9.6
1658	-1.439662	112.938105	0.005156	8.5
1659	-0.968387	112.899599	0.002892	11.7
1660	-0.220884	112.861128	0.005761	10.2
1661	-0.817193	112.822692	0.015301	12.6
1662	-1.723492	112.784291	0.016472	11.7
1663	-1.585243	112.745924	0.015735	8.5
1664	-0.685262	112.707593	0.012752	12.5
1665	-1.072400	112.669296	0.002290	9.7
1666	-0.000239	112.631034	0.000053	7.8
1667	-0.117764	112.592806	0.005949	10.5
1668	-1.016372	112.554613	0.006788	10.0
1669	-0.935147	112.516455	0.007218	11.5
1670	-1.511926	112.478331	0.007979	10.8
1671	-0.916437	112.440241	0.007754	10.5
1672	-0.996322	112.402186	0.001991	10.9
1673	-0.995179	112.364165	0.005869	10.2
1674	-1.217241	112.326179	0.005064	9.5
1675	-0.675229	112.288227	0.017856	9.8
1676	-0.825263	112.250309	0.005815	10.1
1677	-0.756779	112.212425	0.005959	8.9
1678	-0.784409	112.174575	0.007438	11.1
1679	-1.406949	112.136759	0.010207	9.5
1680	-0.436906	112.098977	0.007101	7.4
1681	-1.033185	112.061229	0.004114	10.0
1682	-0.740708	112.023515	0.007068	9.6
1683	-1.889232	111.985834	0.013679	7.8
1684	-1.170436	111.948188	0.012520	10.1
1685	-1.058663	111.910575	0.003431	8.6
1686	-0.711079	111.872996	0.008297	7.8
1687	-0.567570	111.835450	0.005576	10.7
1688	-0.890964	111.797939	0.006717	8.4
1689	-0.674519	111.760460	0.008063	7.5
1690	-1.822387	111.723015	0.012231	10.8
1691	-0.916602	111.685604	0.007094	7.3
1692	-1.026333	111.648226	0.001917	7.1
1693	-0.523184	111.610881	0.007179	10.4
1694	-1.067398	111.573570	0.002186	7.7
1695	-0.660222	111.536292	0.006571	9.5
1696	-0.970568	111.499047	0.006685	9.8
1697	-0.864133	111.461835	0.008351	7.4
1698	-1.941490	111.424656	0.009941	9.6
1699	-1.330273	111.387510	0.007870	7.5
1700	-0.717740	111.350398	0.004503	9.8
1701	-0.909947	111.313318	0.007426	12.0
1702	-0.957884	111.276271	0.007616	9.0
1703	-1.799038	111.239257	0.007522	7.7
1704	-1.011038	111.202276	0.003604	10.9
1705	-0.846325	111.165328	0.006140	10.7
1706	-0.530935	111.128412	0.005203	7.3
1707	-0.488169	111.091529	0.009260	27.3
1708	-0.686896	111.054679	0.021432	43.4
1709	-0.528613	111.017861	0.007991	27.7
1710	-0.455457	110.981076	0.002936	15.0
1711	-0.629618	110.944323	0.005125	9.7
1712	-1.954413	110.907603	0.003333	11.0
1713	-1.869387	110.870915	0.014472	8.7
1714	-0.730014	110.834259	0.012604	12.0
1715	-0.803528	110.797636	0.011338	10.1
1716	-1.372215	110.761045	0.005379	8.0
1717	-0.639543	110.724486	0.010075	10.2
1718	-0.577814	110.687959	0.003888	9.8
1719	-0.576825	110.651465	0.004376	8.0
1720	-0.661898	110.615002	0.007754	10.1
1721	-0.576505	110.578572	0.010192	9.4
1722	-0.247057	110.542173	0.004644	7.1
1723	-1.268481	110.505807	0.022450	10.6
1724	-1.025333	110.469472	0.001635	9.7
1725	-1.949049	110.433169	0.003323	7.3
1726	-0.805669	110.396898	0.006317	10.4
1727	-0.512214	110.360659	0.016872	9.5
1728	-0.817253	110.324451	0.007236	7.1
1729	-0.434131	110.288276	0.008745	10.7
1730	-0.759005	110.252131	0.006866	7.9
1731	-0.582454	110.216019	0.014636	7.9
1732	-0.653895	110.179937	0.014797	11.4
1733	-1.108600	110.143888	0.006982	7.9
1734	-0.730638	110.107869	0.009822	8.0
1735	-0.739468	110.071882	0.011186	10.5
1736	-1.763516	110.035927	0.022232	8.0
1737	-1.059436	110.000003	0.004285	8.7
1738	-0.604999	109.964110	0.006725	10.2
1739	-1.101140	109.928248	0.009953	7.1
1740	-0.651736	109.892417	0.012115	9.3
1741	-0.463532	109.856618	0.015209	10.3
1742	-0.686862	109.820850	0.009844	7.6
1743	-0.409863	109.785112	0.002431	9.9
1744	-0.513753	109.749406	0.006548	10.7
1745	-0.127062	109.713730	0.004056	7.3
1746	-1.012573	109.678086	0.006619	9.7
1747	-0.764444	109.642472	0.008838	9.4
1748	-0.555637	109.606890	0.005665	7.6
1749	-1.028185	109.571337	0.002138	9.5
1750	-0.130415	109.535816	0.001085	6.9
1751	-0.388060	109.500326	0.022413	9.6
1752	-0.564072	109.464866	0.007870	9.7
1753	-1.484586	109.429436	0.011380	7.0
1754	-0.592084	109.394038	0.005437	10.7
1755	-0.874248	109.358669	0.005651	9.4
1756	-0.349654	109.323331	0.009162	7.1
1757	-0.599422	109.288024	0.015725	10.7
1758	-1.293170	109.252747	0.006144	8.9
1759	-0.666888	109.217501	0.019855	6.9
1760	-0.159856	109.182284	0.002173	10.3
1761	-0.712053	109.147098	0.006434	10.3
1762	-0.591485	109.111942	0.012301	8.0
1763	-0.588222	109.076817	0.004220	10.3
1764	-0.373946	109.041721	0.008692	9.2
1765	-1.343681	109.006656	0.004738	7.3
1766	-0.930800	108.971620	0.003284	10.6
1767	-0.711121	108.936615	0.002468	9.3
1768	-0.249679	108.901640	0.001694	7.1
1769	-0.172716	108.866694	0.003208	10.5
1770	-0.797206	108.831779	0.004380	7.9
1771	-0.682021	108.796893	0.009315	7.2
1772	-0.999962	108.762037	0.005734	10.4
1773	-1.744976	108.727211	0.008638	7.2
1774	-0.472632	108.692415	0.010984	8.4
1775	-1.013022	108.657648	0.011576	9.6
1776	-0.384079	108.622911	0.017674	7.1
1777	-1.073825	108.588203	0.004545	9.7
1778	-0.574612	108.553525	0.010224	9.6
1779	-0.003883	108.518877	0.000406	7.3
1780	-0.764100	108.484258	0.009063	10.1
1781	-0.797388	108.449668	0.017535	10.4
1782	-0.880375	108.415108	0.008476	7.6
1783	-1.104972	108.380578	0.003648	9.7
1784	-0.514669	108.346076	0.004706	9.3
1785	-0.987379	108.311604	0.005758	7.2
1786	-0.929546	108.277161	0.015808	11.5
1787	-0.295886	108.242747	0.005086	10.2
1788	-0.623817	108.208363	0.002579	7.7
1789	-0.645803	108.174007	0.010163	8.4
1790	-1.338067	108.139681	0.012141	10.3
1791	-0.530441	108.105383	0.003736	7.2
1792	-0.476468	108.071115	0.020576	9.6
1793	-0.626137	108.036875	0.010515	10.0
1794	-1.426604	108.002665	0.007339	7.4
1795	-0.402759	107.968483	0.003725	9.3
1796	-1.006839	107.934330	0.002066	9.6
1797	-1.075235	107.900206	0.003241	7.9
1798	-0.464672	107.866111	0.004566	9.4
1799	-1.069043	107.832044	0.004499	8.9
1800	-0.606975	107.798007	0.009858	7.4
1801	-1.063582	107.763997	0.003399	9.8
1802	-0.871643	107.730017	0.008600	8.5
1803	-1.012138	107.696065	0.005648	8.3
1804	-1.229386	107.662141	0.003737	9.9
1805	-0.454083	107.628246	0.009878	7.0
1806	-0.914687	107.594379	0.003015	9.8
1807	-1.616864	107.560541	0.020779	9.9
1808	-0.027884	107.526731	0.000259	7.2
1809	-0.895230	107.492949	0.009544	10.4
1810	-0.308613	107.459196	0.010410	9.5
1811	-0.300244	107.425471	0.008211	7.3
1812	-0.718638	107.391774	0.013092	10.3
1813	-0.837146	107.358106	0.006068	9.9
1814	-1.401108	107.324465	0.005762	7.1
1815	-0.130983	107.290853	0.003158	11.1
1816	-1.828491	107.257268	0.019142	9.5
1817	-1.721540	107.223712	0.009328	7.3
1818	-1.033885	107.190184	0.005331	10.8
1819	-0.552994	107.156683	0.021645	9.1
1820	-0.709112	107.123211	0.006024	7.9
1821	-0.632585	107.089766	0.009841	10.8
1822	-1.036279	107.056349	0.006372	8.8
1823	-0.930743	107.022960	0.009917	8.5
1824	-1.043331	106.989599	0.003355	10.5
1825	-0.343551	106.956265	0.005039	7.9
1826	-0.574367	106.922960	0.002836	8.5
1827	-1.014129	106.889681	0.033065	9.7
1828	-0.682983	106.856431	0.013976	7.5
1829	-1.292013	106.823208	0.006025	9.5
1830	-0.894893	106.790012	0.007261	9.6
1831	-1.055661	106.756844	0.006414	7.9
1832	-0.516146	106.723703	0.006443	9.9
1833	-1.131390	106.690590	0.021440	10.4
1834	-0.762109	106.657505	0.009128	7.8
1835	-0.559021	106.624446	0.015843	10.0
1836	-0.900523	106.591415	0.004616	10.4
1837	-0.704510	106.558411	0.016688	7.3
1838	-1.759035	106.525435	0.031633	40.7
1839	-0.940500	106.492485	0.005828	13.0
1840	-0.840894	106.459563	0.013242	17.2
1841	-0.453176	106.426668	0.004081	14.5
1842	-0.275723	106.393800	0.015261	14.2
1843	-0.093303	106.360959	0.003713	10.1
1844	-1.585449	106.328145	0.014983	7.9
1845	-1.216893	106.295358	0.004274	9.6
1846	-0.999362	106.262598	0.007324	7.7
1847	-0.825221	106.229865	0.020559	9.4
1848	-0.275958	106.197158	0.015525	9.5
1849	-0.722858	106.164479	0.014687	7.5
1850	-0.982894	106.131826	0.010206	9.5
1851	-0.562811	106.099201	0.005719	9.4
1852	-0.702121	106.066602	0.022420	7.1
1853	-0.731979	106.034029	0.005959	9.9
1854	-0.826030	106.001483	0.011609	8.0
1855	-1.197856	105.968964	0.001562	6.8
1856	-0.506958	105.936472	0.014560	10.4
1857	-0.174704	105.904006	0.008389	8.0
1858	-0.767634	105.871566	0.016269	8.5
1859	-0.548443	105.839153	0.007515	9.9
1860	-0.734817	105.806767	0.008519	7.9
1861	-0.404551	105.774407	0.004518	9.7
1862	-0.981283	105.742073	0.009690	10.5
1863	-0.643560	105.709766	0.014268	7.2
1864	-0.583587	105.677485	0.008681	9.6
1865	-0.979364	105.645230	0.029670	9.0
1866	-1.070841	105.613001	0.002944	8.2
1867	-0.887246	105.580799	0.001745	9.7
1868	-0.926591	105.548623	0.010348	10.0
1869	-0.860907	105.516473	0.003721	7.6
1870	-0.046234	105.484349	0.003388	9.2
1871	-0.735811	105.452251	0.004174	7.7
1872	-0.568393	105.420179	0.003734	10.3
1873	-0.938232	105.388133	0.003156	10.5
1874	-0.148803	105.356113	0.002144	8.0
1875	-0.812290	105.324119	0.006247	9.1
1876	-1.411707	105.292151	0.008135	14.3
1877	-0.919529	105.260209	0.010215	12.8
1878	-0.470919	105.228293	0.006847	15.6
1879	-0.060404	105.196402	0.003883	18.6
1880	-0.785356	105.164537	0.021962	50.8
1881	-0.949803	105.132698	0.002472	64.5
1882	-0.384064	105.100885	0.005577	31.2
1883	-0.665883	105.069097	0.010362	17.5
1884	-1.616428	105.037335	0.008172	15.5
1885	-0.313009	105.005598	0.009217	86.8
1886	-1.769790	104.973887	0.010487	17.6
1887	-0.381307	104.942202	0.008687	22.4
1888	-1.072858	104.910542	0.005476	14.4
1889	-1.028495	104.878907	0.006072	16.3
1890	-0.950224	104.847298	0.014216	24.0
1891	-1.324493	104.815715	0.019885	16.4
1892	-1.670548	104.784156	0.013260	19.9
1893	-0.970831	104.752623	0.008678	20.7
1894	-0.976442	104.721116	0.009363	13.1
1895	-0.796386	104.689633	0.008823	12.4
1896	-0.395752	104.658176	0.005428	12.6
1897	-1.168112	104.626744	0.005423	12.4
1898	-1.312547	104.595337	0.006130	11.9
1899	-0.695555	104.563955	0.006574	14.1
1900	-0.687006	104.532599	0.006777	13.7
1901	-1.558268	104.501267	0.008451	21.3
1902	-0.686165	104.469960	0.007023	14.9
1903	-0.977820	104.438679	0.006065	10.8
1904	-0.885748	104.407422	0.008483	12.5
1905	-1.943800	104.376191	0.004864	12.1
1906	-1.021493	104.344984	0.003517	11.9
1907	-0.979174	104.313802	0.016826	8.6
1908	-0.552362	104.282645	0.007896	10.9
1909	-0.666779	104.251513	0.012810	48.3
1910	-0.856820	104.220405	0.013504	19.6
1911	-0.572629	104.189323	0.015105	15.5
1912	-1.743912	104.158265	0.019937	37.1
1913	-1.965502	104.127231	0.007947	36.6
1914	-0.846424	104.096222	0.008369	28.8
1915	-0.768377	104.065238	0.005012	30.1
1916	-0.376605	104.034279	0.014395	44.5
1917	-1.224085	104.003344	0.020538	16.4
1918	-0.575644	103.972433	0.015415	19.1
1919	-0.928591	103.941547	0.001992	13.7
1920	-1.256845	103.910686	0.008434	10.2
1921	-0.544310	103.879849	0.007751	13.0
1922	-1.196862	103.849036	0.008958	10.5
1923	-1.435116	103.818248	0.007478	15.9
1924	-0.758838	103.787484	0.019240	10.9
1925	-0.983232	103.756744	0.005104	10.7
1926	-0.878357	103.726029	0.011111	11.6
1927	-0.590788	103.695338	0.001771	12.1
1928	-1.287987	103.664671	0.018674	69.5
1929	-1.529374	103.634028	0.007827	14.4
1930	-0.687456	103.603409	0.015624	11.6
1931	-0.499949	103.572814	0.006826	11.4
1932	-1.606975	103.542244	0.011106	11.9
1933	-0.793983	103.511698	0.008212	8.9
1934	-1.732488	103.481175	0.008744	10.2
1935	-0.689696	103.450677	0.007879	11.0
1936	-1.607517	103.420202	0.014858	9.1
1937	-1.458585	103.389752	0.036356	9.7
1938	-0.251912	103.359325	0.003345	12.1
1939	-1.521094	103.328922	0.010588	15.7
1940	-0.434902	103.298543	0.005900	11.1
1941	-1.426976	103.268188	0.010249	16.5
1942	-1.507710	103.237857	0.006796	45.9
1943	-0.343039	103.207549	0.009443	14.4
1944	-0.625670	103.177265	0.010124	10.8
1945	-0.953876	103.147005	0.007890	13.5
1946	-0.661673	103.116768	0.004090	25.0
1947	-1.072945	103.086556	0.005877	30.6
1948	-1.092324	103.056366	0.002128	19.7
1949	-0.744319	103.026200	0.009657	20.5
1950	-0.588303	102.996058	0.012816	15.8
1951	-0.543455	102.965939	0.008158	13.4
1952	-0.967552	102.935844	0.021135	15.5
1953	-0.677310	102.905772	0.009245	17.5
1954	-0.382590	102.875724	0.012657	15.9
1955	-0.488284	102.845699	0.010685	13.4
1956	-0.752625	102.815697	0.014680	11.2
1957	-1.351426	102.785719	0.007916	13.3
1958	-0.479456	102.755764	0.010561	11.5
1959	-0.915546	102.725832	0.007704	13.5
1960	-0.852645	102.695924	0.010439	20.8
1961	-1.606030	102.666038	0.012198	13.6
1962	-1.058388	102.636176	0.009955	10.1
1963	-0.022885	102.606337	0.000567	10.1
1964	-0.315769	102.576521	0.005846	12.6
1965	-1.074217	102.546728	0.013470	12.4
1966	-0.260152	102.516959	0.006062	12.1
1967	-0.966832	102.487212	0.004567	9.9
1968	-0.005356	102.457488	0.000549	8.1
1969	-1.783500	102.427788	0.010350	13.0
1970	-1.006660	102.398110	0.005225	11.9
1971	-0.857442	102.368455	0.005676	11.4
1972	-1.559589	102.338823	0.015905	8.5
1973	-0.925841	102.309214	0.007120	9.8
1974	-1.051406	102.279628	0.006224	15.6
1975	-0.730853	102.250064	0.004157	10.6
1976	-0.507588	102.220524	0.006288	14.4
1977	-0.853122	102.191006	0.010460	10.3
1978	-0.356775	102.161511	0.009622	14.9
1979	-1.551222	102.132038	0.004325	19.6
1980	-0.154558	102.102588	0.003917	15.6
1981	-0.947715	102.073161	0.008885	14.1
1982	-1.043941	102.043757	0.017428	11.0
1983	-0.949508	102.014375	0.003127	21.7
1984	-1.054686	101.985015	0.005690	12.8
1985	-0.857574	101.955678	0.015873	12.6
1986	-0.840099	101.926364	0.009269	12.4
1987	-1.042841	101.897072	0.005465	16.4
1988	-1.976446	101.867802	0.007605	15.6
1989	-0.869752	101.838555	0.008816	20.0
1990	-0.066825	101.809330	0.001244	9.6
1991	-1.588945	101.780128	0.010141	15.3
1992	-0.755308	101.750948	0.021159	13.6
1993	-0.968845	101.721790	0.016540	15.5
1994	-1.558064	101.692654	0.008843	22.9
1995	-0.922358	101.663541	0.015385	17.5
1996	-0.764676	101.634450	0.006036	14.1
1997	-1.478360	101.605381	0.006764	57.9
1998	-0.969673	101.576335	0.004531	10.8
1999	-0.584779	101.547310	0.004864	9.6
